<?xml version="1.0" encoding="UTF-8" standalone="no"?>
<svg width="72px" height="72px" viewBox="0 0 72 72" version="1.1" xmlns="http://www.w3.org/2000/svg" xmlns:xlink="http://www.w3.org/1999/xlink">
    <!-- Generator: sketchtool 3.7.2 (28276) - http://www.bohemiancoding.com/sketch -->
    <title>A2BEE1D8-2C49-448E-AB2E-8B799018A87D</title>
    <desc>Created with sketchtool.</desc>
    <defs>
        <circle id="path-1" cx="36" cy="36" r="36"></circle>
        <mask id="mask-2" maskContentUnits="userSpaceOnUse" maskUnits="objectBoundingBox" x="0" y="0" width="72" height="72" fill="white">
            <use xlink:href="#path-1"></use>
        </mask>
        <ellipse id="path-3" cx="22.3661972" cy="15.6338028" rx="15.6338028" ry="15.6338028"></ellipse>
        <mask id="mask-4" maskContentUnits="userSpaceOnUse" maskUnits="objectBoundingBox" x="0" y="0" width="31.2676056" height="31.2676056" fill="white">
            <use xlink:href="#path-3"></use>
        </mask>
    </defs>
    <g id="Page-1" stroke="none" stroke-width="1" fill="none" fill-rule="evenodd">
        <g id="Landing" transform="translate(-334.000000, -1077.000000)">
            <g id="Group-8" transform="translate(245.000000, 1077.000000)">
                <g id="Group-9" transform="translate(89.000000, 0.000000)">
                    <use id="Oval-8-Copy-2" stroke="#FA9C00" mask="url(#mask-2)" stroke-width="4" xlink:href="#path-1"></use>
                    <g id="Group-10-Copy" transform="translate(17.000000, 16.000000)">
                        <use id="Oval-8-Copy-9" stroke="#FA9C00" mask="url(#mask-4)" stroke-width="4" xlink:href="#path-3"></use>
                        <polygon id="Rectangle-5" fill="#FA9C00" transform="translate(6.697183, 31.809859) rotate(-315.000000) translate(-6.697183, -31.809859) " points="5.6971831 23.5558609 7.6971831 23.5558609 7.6971831 40.0638574 5.6971831 40.0638574"></polygon>
                    </g>
                </g>
            </g>
        </g>
    </g>
</svg>