<?xml version="1.0" encoding="UTF-8"?>
<svg width="186px" height="19px" viewBox="0 0 186 19" version="1.1" xmlns="http://www.w3.org/2000/svg" xmlns:xlink="http://www.w3.org/1999/xlink">
    <!-- Generator: sketchtool 41 (35326) - http://www.bohemiancoding.com/sketch -->
    <title>1F3E331E-63FA-4FB5-B2E9-9BD6CFEFB86A</title>
    <desc>Created with sketchtool.</desc>
    <defs></defs>
    <g id="Page-1" stroke="none" stroke-width="1" fill="none" fill-rule="evenodd">
        <g id="Landing-Video" transform="translate(-150.000000, -43.000000)">
            <g id="Group-47" transform="translate(150.000000, 31.000000)">
                <g id="Group-Copy" transform="translate(0.000000, 12.000000)">
                    <path d="M0.787248884,13.1928246 C0.894601004,16.4253162 3.53069196,18.3934384 7.66971261,18.3934384 C11.9399414,18.3934384 14.6476004,16.2821801 14.6476004,12.9423363 C14.6476004,10.3181734 13.1446708,8.8390997 9.69747489,8.09956287 L7.61007254,7.65822638 C5.63002232,7.20496187 4.79506138,6.6085612 4.79506138,5.54696801 C4.79506138,4.27067057 5.98786272,3.42378162 7.76513672,3.42378162 C9.56626674,3.42378162 10.8425642,4.30645461 10.9618443,5.76167225 L14.3374721,5.76167225 C14.277832,2.64846075 11.7610212,0.584914435 7.75320871,0.584914435 C3.91238839,0.584914435 1.16894531,2.68424479 1.16894531,5.85709635 C1.16894531,8.37390718 2.73151507,9.98418899 5.90436663,10.6640858 L8.14683315,11.1531343 C10.2223075,11.6183268 11.0453404,12.2385835 11.0453404,13.3598168 C11.0453404,14.6241862 9.73325893,15.5426432 7.81284877,15.5426432 C5.90436663,15.5426432 4.42529297,14.6122582 4.25830078,13.1928246 L0.787248884,13.1928246 Z M24.5203087,18.0952381 L24.5203087,3.8531901 L29.5658584,3.8531901 L29.5658584,0.883114769 L15.884427,0.883114769 L15.884427,3.8531901 L20.9180486,3.8531901 L20.9180486,18.0952381 L24.5203087,18.0952381 Z M40.3928077,18.0952381 L44.2217,18.0952381 L38.2338372,0.883114769 L33.9993925,0.883114769 L28.0234578,18.0952381 L31.7211419,18.0952381 L33.0332234,13.9204334 L39.0807262,13.9204334 L40.3928077,18.0952381 Z M36.0152267,4.17524647 L36.0987228,4.17524647 L38.3054053,11.2247024 L33.8085443,11.2247024 L36.0152267,4.17524647 Z M49.466339,3.69812593 L52.5914785,3.69812593 C54.3806805,3.69812593 55.5019138,4.77164714 55.5019138,6.44156901 C55.5019138,8.14727493 54.4403206,9.18501209 52.6272626,9.18501209 L49.466339,9.18501209 L49.466339,3.69812593 Z M49.466339,11.797247 L52.4125583,11.797247 L55.6211939,18.0952381 L59.7005745,18.0952381 L56.0744584,11.2604864 C58.0545086,10.4851656 59.1995979,8.57668341 59.1995979,6.37000093 C59.1995979,2.97051711 56.9332754,0.883114769 52.9731749,0.883114769 L45.864079,0.883114769 L45.864079,18.0952381 L49.466339,18.0952381 L49.466339,11.797247 Z M69.0603782,18.3934384 C73.2828949,18.3934384 76.2291142,15.9601237 76.6346667,12.1193034 L73.1278307,12.1193034 C72.7461343,14.1589937 71.2074206,15.4114351 69.0723062,15.4114351 C66.3169351,15.4114351 64.5873731,13.1451125 64.5873731,9.47128441 C64.5873731,5.84516834 66.3407911,3.56691778 69.0603782,3.56691778 C71.1597085,3.56691778 72.7819183,4.95056734 73.1159027,7.06182571 L76.6227387,7.06182571 C76.3483943,3.20907738 73.1993988,0.584914435 69.0603782,0.584914435 C64.0744686,0.584914435 60.913545,3.9366862 60.913545,9.48321243 C60.913545,15.0416667 64.0506125,18.3934384 69.0603782,18.3934384 L69.0603782,18.3934384 Z M117.51739,0.883114769 L113.342586,0.883114769 L108.4521,13.0854725 L108.356676,13.0854725 L103.466191,0.883114769 L99.2913859,0.883114769 L99.2913859,18.0952381 L102.500021,18.0952381 L102.500021,6.47735305 L102.595446,6.47735305 L107.271227,17.9282459 L109.537549,17.9282459 L114.213331,6.47735305 L114.308755,6.47735305 L114.308755,18.0952381 L117.51739,18.0952381 L117.51739,0.883114769 Z M138.495079,0.883114769 L134.320274,0.883114769 L129.429789,13.0854725 L129.334365,13.0854725 L124.443879,0.883114769 L120.269075,0.883114769 L120.269075,18.0952381 L123.47771,18.0952381 L123.47771,6.47735305 L123.573134,6.47735305 L128.248916,17.9282459 L130.515238,17.9282459 L135.191019,6.47735305 L135.286443,6.47735305 L135.286443,18.0952381 L138.495079,18.0952381 L138.495079,0.883114769 Z M152.649944,15.1132347 L144.849023,15.1132347 L144.849023,10.7714379 L152.208608,10.7714379 L152.208608,8.00413876 L144.849023,8.00413876 L144.849023,3.8531901 L152.649944,3.8531901 L152.649944,0.883114769 L141.246763,0.883114769 L141.246763,18.0952381 L152.649944,18.0952381 L152.649944,15.1132347 Z M158.586408,18.0952381 L158.586408,6.82326544 L158.69376,6.82326544 L166.745169,18.0952381 L169.727172,18.0952381 L169.727172,0.883114769 L166.279977,0.883114769 L166.279977,12.0954474 L166.184552,12.0954474 L158.145071,0.883114769 L155.139212,0.883114769 L155.139212,18.0952381 L158.586408,18.0952381 Z M180.255921,18.0952381 L180.255921,3.8531901 L185.301471,3.8531901 L185.301471,0.883114769 L171.62004,0.883114769 L171.62004,3.8531901 L176.653661,3.8531901 L176.653661,18.0952381 L180.255921,18.0952381 Z" id="STARC----MMENT" fill="#FFFFFF"></path>
                    <ellipse id="Oval-1" fill="#5FBEAA" cx="87.5809551" cy="9.5" rx="9.04761905" ry="9.04761905"></ellipse>
                </g>
            </g>
        </g>
    </g>
</svg>