<?xml version="1.0" encoding="UTF-8"?>
<svg width="20px" height="20px" viewBox="0 0 20 20" version="1.1" xmlns="http://www.w3.org/2000/svg" xmlns:xlink="http://www.w3.org/1999/xlink">
    <!-- Generator: sketchtool 41 (35326) - http://www.bohemiancoding.com/sketch -->
    <title>346CE913-9C9D-4BA0-833A-51425684624C</title>
    <desc>Created with sketchtool.</desc>
    <defs></defs>
    <g id="Symbols" stroke="none" stroke-width="1" fill="none" fill-rule="evenodd" opacity="0.349999994">
        <g id="footer" transform="translate(-1160.000000, -3.000000)" fill="#13385B">
            <g id="Combined-Shape-Copy-3">
                <path d="M1160,5.99420208 C1160,4.34054993 1161.34331,3 1162.9942,3 L1177.0058,3 C1178.65945,3 1180,4.34331197 1180,5.99420208 L1180,20.0057979 C1180,21.6594501 1178.65669,23 1177.0058,23 L1162.9942,23 C1161.34055,23 1160,21.656688 1160,20.0057979 L1160,5.99420208 Z M1170.63851,23 L1170.63851,15.204403 L1168.04291,15.204403 L1168.04291,12.1984328 L1170.63851,12.1984328 L1170.63851,9.98164179 C1170.63851,7.40902985 1172.20978,6.00820896 1174.5047,6.00820896 C1175.60396,6.00820896 1176.54881,6.09007463 1176.8241,6.12664179 L1176.8241,8.81514925 L1175.23246,8.81589552 C1173.98433,8.81589552 1173.74269,9.40895522 1173.74269,10.2792537 L1173.74269,12.1984328 L1176.71933,12.1984328 L1176.33172,15.204403 L1173.74269,15.204403 L1173.74269,23 L1170.63851,23 Z"></path>
            </g>
        </g>
    </g>
</svg>