<?xml version="1.0" encoding="UTF-8"?>
<svg width="20px" height="40px" viewBox="0 0 20 40" version="1.1" xmlns="http://www.w3.org/2000/svg" xmlns:xlink="http://www.w3.org/1999/xlink">
    <!-- Generator: Sketch 41 (35326) - http://www.bohemiancoding.com/sketch -->
    <title>Rectangle 90 Copy</title>
    <desc>Created with Sketch.</desc>
    <defs></defs>
    <g id="Symbols" stroke="none" stroke-width="1" fill="none" fill-rule="evenodd">
        <g id="Elements" transform="translate(-1169.000000, -1510.000000)" fill="#3A7FDB">
            <g id="Group-3-Copy-2" transform="translate(597.000000, 1490.000000)">
                <path d="M572,20 L572.998957,20 C574.104102,20 575.588659,20.6689302 576.323583,21.5040716 L591.022195,38.20704 C592.114507,39.448303 592.095042,41.4372024 590.970161,42.6586638 L576.352926,58.5309142 C575.605725,59.3422679 574.099901,60 572.998957,60 L572,60 L572,20 Z" id="Rectangle-90-Copy"></path>
            </g>
        </g>
    </g>
</svg>
