<?xml version="1.0" encoding="UTF-8"?>
<svg width="26px" height="26px" viewBox="0 0 26 26" version="1.1" xmlns="http://www.w3.org/2000/svg" xmlns:xlink="http://www.w3.org/1999/xlink">
    <!-- Generator: Sketch 41 (35326) - http://www.bohemiancoding.com/sketch -->
    <title>task-help</title>
    <desc>Created with Sketch.</desc>
    <defs>
        <path d="M12.8263358,0.00118145819 C5.64717349,0.0972691319 -0.0943476215,5.99563924 0.00117483065,13.1750841 C0.0972625044,20.3514203 5.99506739,26.0946371 13.1739471,25.9991146 C20.3516963,25.9024617 26.0943478,20.0040916 25.9988254,12.825212 C25.9027377,5.64831056 20.0046502,-0.0946236047 12.8263358,0.00118145819 L12.8263358,0.00118145819 Z" id="path-1"></path>
        <mask id="mask-2" maskContentUnits="userSpaceOnUse" maskUnits="objectBoundingBox" x="0" y="0" width="26" height="26.0002891" fill="white">
            <use xlink:href="#path-1"></use>
        </mask>
    </defs>
    <g id="Final" stroke="none" stroke-width="1" fill="none" fill-rule="evenodd">
        <g id="AddTask1-0-Help" transform="translate(-463.000000, -628.000000)">
            <g id="task-help" transform="translate(463.000000, 628.000000)">
                <use id="Shape-Copy-4" stroke="#9CACBA" mask="url(#mask-2)" stroke-width="4" xlink:href="#path-1"></use>
                <path d="M16.5878771,12.4044859 C16.3782869,12.7022406 15.9174162,13.0719851 15.3367146,13.5244266 L14.6972367,13.9659329 C14.3461731,14.2388558 14.1343047,14.4956039 14.0547971,14.7482512 C13.9921479,14.9471341 13.9613928,14.9997594 13.9559252,15.4043597 L13.9550139,15.5071044 L11.513288,15.5071044 L11.5203503,15.3004758 C11.5501941,14.4511798 11.5711531,13.9515806 11.923128,13.538779 C12.4753526,12.8904162 13.6934818,12.1060476 13.7451959,12.0727866 C13.9197025,11.9413371 14.0668713,11.7916623 14.1764506,11.6317359 C14.4327429,11.2783941 14.546195,11.0002314 14.546195,10.7268529 C14.546195,10.3475402 14.4336542,9.9967044 14.2110785,9.68436942 C13.9971598,9.38296958 13.590737,9.23033323 13.0029732,9.23033323 C12.4199935,9.23033323 12.0208608,9.41531938 11.7821102,9.79485991 C11.5365252,10.1851078 11.4123657,10.5949478 11.4123657,11.0136726 L11.4123657,11.1177842 L8.89477723,11.1177842 L8.89933353,11.0091162 C8.96426094,9.46703348 9.51466306,8.35666099 10.5345928,7.70875386 C11.1754377,7.29618009 11.9727917,7.08704551 12.90319,7.08704551 C14.1210914,7.08704551 15.1492225,7.38297777 15.9586508,7.96664095 C16.7787864,8.55804985 17.1947774,9.44379631 17.1947774,10.5992763 C17.1947774,11.2455887 16.9906548,11.8527168 16.5878771,12.4044859 Z M12.8391739,19.8447106 L12.7813088,19.8437993 C11.8900947,19.8173727 11.2617797,19.1608086 11.2870672,18.2828078 C11.3118991,17.4198429 11.9554778,16.7933505 12.8173036,16.7933505 L12.8690177,16.7942617 C13.7850636,16.8213718 14.4063163,17.4713292 14.3805732,18.3746175 C14.3550579,19.2400884 13.7215031,19.8447106 12.8391739,19.8447106 Z" id="Combined-Shape" fill="#9CACBA"></path>
            </g>
        </g>
    </g>
</svg>