<?xml version="1.0" encoding="UTF-8"?>
<svg width="42px" height="26px" viewBox="0 0 42 26" version="1.1" xmlns="http://www.w3.org/2000/svg" xmlns:xlink="http://www.w3.org/1999/xlink">
    <!-- Generator: sketchtool 41 (35326) - http://www.bohemiancoding.com/sketch -->
    <title>37AF7A4B-2888-4793-8083-5C7C9A845BD0</title>
    <desc>Created with sketchtool.</desc>
    <defs>
        <linearGradient x1="-1.64176119%" y1="-4.80414497%" x2="81.7667643%" y2="100%" id="linearGradient-1">
            <stop stop-color="#519E100" offset="0%"></stop>
            <stop stop-color="#4F9DFF" offset="0%"></stop>
            <stop stop-color="#2E82ED" offset="100%"></stop>
        </linearGradient>
    </defs>
    <g id="Final" stroke="none" stroke-width="1" fill="none" fill-rule="evenodd">
        <g id="AddTask0" transform="translate(-517.000000, -157.000000)" fill="url(#linearGradient-1)">
            <g id="Group-26" transform="translate(463.000000, 90.000000)">
                <g id="Group-2-Copy-2" transform="translate(0.000000, 45.000000)">
                    <path d="M74.5493983,47.094443 L77.0597822,47.094443 C77.0597822,47.094443 77.8178962,47.0064044 78.2055312,46.5677669 C78.5618123,46.1645937 78.5504243,45.4080218 78.5504243,45.4080218 C78.5504243,45.4080218 78.5013229,41.8654798 80.064434,41.3436256 C81.6059522,40.8295487 83.5849464,44.7676422 85.6824051,46.2818748 C87.2685879,47.4276208 88.4739389,47.1767264 88.4739389,47.1767264 L94.0828884,47.094443 C94.0828884,47.094443 97.016846,46.9039001 95.6255899,44.4778615 C95.5117101,44.2795414 94.8151207,42.6831809 91.4550753,39.4030436 C87.9378165,35.9696943 88.4093085,36.5253018 92.6457846,30.5867413 C95.2258274,26.9701597 96.2571051,24.7623511 95.9348401,23.8166362 C95.6276604,22.9157184 93.730009,23.1537026 93.730009,23.1537026 L87.4148569,23.194922 C87.4148569,23.194922 86.9463229,23.1277265 86.5993593,23.3462675 C86.2599383,23.5596756 86.0420878,24.0586646 86.0420878,24.0586646 C86.0420878,24.0586646 85.042164,26.8572339 83.7096226,29.2375422 C80.8975312,34.2593192 79.7729313,34.525146 79.313271,34.2128112 C78.2436883,33.486104 78.511084,31.2933832 78.511084,29.7352869 C78.511084,24.8682774 79.2129976,22.8391902 77.1442307,22.313914 C76.4578462,22.1395478 75.9521903,22.0242888 74.1965189,22.0056234 C71.9431779,21.9813583 70.0362091,22.012934 68.9562737,22.5691637 C68.2377957,22.9393613 67.6834822,23.7635953 68.0212762,23.8111922 C68.4387862,23.8696771 69.3838405,24.0795076 69.8850595,24.796571 C70.5322517,25.7228427 70.5096236,27.8021711 70.5096236,27.8021711 C70.5096236,27.8021711 70.8815817,33.5312121 69.6410314,34.2428314 C68.7900388,34.7309323 67.6222533,33.7343541 65.1151231,29.1781239 C63.8307957,26.8444792 62.8607469,24.2644509 62.8607469,24.2644509 C62.8607469,24.2644509 62.6739545,23.7824163 62.3403015,23.5242112 C61.9356585,23.2117209 61.3702527,23.1124831 61.3702527,23.1124831 L55.3689356,23.1537026 C55.3689356,23.1537026 54.46825,23.1803008 54.1372591,23.5921845 C53.8427985,23.9589601 54.1137436,24.7167763 54.1137436,24.7167763 C54.1137436,24.7167763 58.8118027,36.2772072 64.1319116,42.1028418 C69.0105515,47.4450419 74.5493983,47.094443 74.5493983,47.094443" id="Fill-1-Copy-2"></path>
                </g>
            </g>
        </g>
    </g>
</svg>