<?xml version="1.0" encoding="UTF-8"?>
<svg width="28px" height="31px" viewBox="0 0 28 31" version="1.1" xmlns="http://www.w3.org/2000/svg" xmlns:xlink="http://www.w3.org/1999/xlink">
    <!-- Generator: sketchtool 41 (35326) - http://www.bohemiancoding.com/sketch -->
    <title>29CEDBC8-06C3-49CB-BB13-14147009E035</title>
    <desc>Created with sketchtool.</desc>
    <defs></defs>
    <g id="Final" stroke="none" stroke-width="1" fill="none" fill-rule="evenodd" opacity="0.300000012">
        <g id="Prices" transform="translate(-923.000000, -701.000000)" fill="#13385B">
            <g id="Group-4" transform="translate(699.000000, 701.000000)">
                <g id="Group">
                    <path d="M248.921251,10.8528427 L247.304883,10.8528427 L247.304883,20.7907112 C247.304883,22.5716524 246.531041,23.6012026 244.239736,24.1204932 L229.591683,28.2061818 C229.591683,28.2061818 228.344378,28.5385278 228.344378,27.4231818 C228.344378,26.4938773 229.459809,26.380988 229.631978,26.214815 L229.564209,26.2401022 L242.931072,21.0011368 C244.024525,20.3960503 244.921083,19.0061576 244.921083,17.909777 L244.921083,2.2398427 C244.921083,-0.235593291 242.476841,0.612430931 241.943851,0.925811553 C241.359578,1.26718872 226.458767,9.49997764 226.458767,9.49997764 C225.365315,10.1050641 224.470588,11.4985693 224.470588,12.5967562 L224.470588,28.2061818 C224.470588,29.3016593 226.057651,30.7619949 227.080588,30.7692199 L227.080588,30.770123 L248.921251,30.770123 C250.23083,30.7737354 251.30322,29.876943 251.30322,28.7787562 L251.30322,12.8478219 C251.30322,11.7496351 250.23083,10.8528427 248.921251,10.8528427 L248.921251,10.8528427 Z M238.358536,9.65982885 C239.388799,8.98429944 240.368693,9.20375619 240.546357,10.1484136 C240.723104,11.0966835 240.127841,12.2996316 239.095746,12.975161 C238.06823,13.6497873 237.086504,13.4321368 236.908841,12.4856731 C236.733925,11.5401126 237.327357,10.3362614 238.358536,9.65982885 L238.358536,9.65982885 Z" id="Imported-Layers"></path>
                </g>
            </g>
        </g>
    </g>
</svg>