<?xml version="1.0" encoding="UTF-8"?>
<svg width="30px" height="30px" viewBox="0 0 30 30" version="1.1" xmlns="http://www.w3.org/2000/svg" xmlns:xlink="http://www.w3.org/1999/xlink">
    <!-- Generator: Sketch Beta 43.2 (39068) - http://www.bohemiancoding.com/sketch -->
    <title>icon/slack</title>
    <desc>Created with Sketch Beta.</desc>
    <defs>
        <rect id="path-1" x="0" y="0" width="30" height="30" rx="6"></rect>
        <linearGradient x1="85.4953428%" y1="0%" x2="50%" y2="100%" id="linearGradient-3">
            <stop stop-color="#D51E15" offset="0%"></stop>
            <stop stop-color="#CF1D12" offset="100%"></stop>
        </linearGradient>
        <linearGradient x1="84.9076822%" y1="0%" x2="50%" y2="100%" id="linearGradient-4">
            <stop stop-color="#E4266C" offset="0%"></stop>
            <stop stop-color="#DF2354" offset="100%"></stop>
        </linearGradient>
        <linearGradient x1="85.5844459%" y1="0%" x2="50%" y2="100%" id="linearGradient-5">
            <stop stop-color="#3D133A" offset="0%"></stop>
            <stop stop-color="#310F2F" offset="100%"></stop>
        </linearGradient>
        <linearGradient x1="85.1230376%" y1="0%" x2="50%" y2="100%" id="linearGradient-6">
            <stop stop-color="#ECB431" offset="0%"></stop>
            <stop stop-color="#ECB330" offset="100%"></stop>
        </linearGradient>
        <linearGradient x1="83.8910453%" y1="0%" x2="50%" y2="100%" id="linearGradient-7">
            <stop stop-color="#5FC19D" offset="0%"></stop>
            <stop stop-color="#5CC09B" offset="100%"></stop>
        </linearGradient>
        <linearGradient x1="84.3032856%" y1="0%" x2="50%" y2="100%" id="linearGradient-8">
            <stop stop-color="#8BA430" offset="0%"></stop>
            <stop stop-color="#78922A" offset="100%"></stop>
        </linearGradient>
        <linearGradient x1="84.3454774%" y1="0%" x2="50%" y2="100%" id="linearGradient-9">
            <stop stop-color="#95D8E3" offset="0%"></stop>
            <stop stop-color="#81D1DD" offset="100%"></stop>
        </linearGradient>
        <linearGradient x1="84.928195%" y1="0%" x2="50%" y2="100%" id="linearGradient-10">
            <stop stop-color="#36AB96" offset="0%"></stop>
            <stop stop-color="#31A28C" offset="100%"></stop>
        </linearGradient>
        <path d="M6.12422466,2.66541746 C6.38478699,2.82639063 6.82366719,2.56112143 7.06653529,2.07593104 C7.06653529,2.07593104 6.9223743,2.42818526 7.11361039,1.96685808 C7.30484649,1.5055309 7.12251522,1.94518916 7.12251522,1.94518916 C7.28415027,1.41255692 7.02957588,0.739681052 6.55366798,0.486840487 C6.55366798,0.486840487 6.70076016,0.500768926 6.30360915,0.392215219 C5.99686606,0.308372803 5.56056571,0.148102557 5.13945186,0.0848411166 C4.46570256,-0.0163722506 3.83120405,0.0011608454 3.83120405,0.0011608454 C3.83120405,0.0011608454 3.26057693,-0.00595582028 2.72255381,0.0848411137 C2.28670373,0.158395295 1.88774386,0.320398568 1.70829864,0.411095621 C1.37362365,0.5802505 1.06401158,0.860970867 0.912174864,1.00858489 C0.633822544,1.27919601 0.452974071,1.63031824 0.417897805,1.69318072 C0.285649118,1.93019228 0.197863893,2.20507021 0.15077914,2.36619323 C0.043976578,2.73166933 0.0385543595,3.15134792 0.0333016671,3.33991582 C0.0245134871,3.65540518 0.0726713558,3.98267977 0.0970196257,4.12831926 C0.145142821,4.41616879 0.259975788,4.63688218 0.363413819,4.84400361 C0.54113863,5.1998748 0.892725716,5.50352325 1.05987265,5.64062348 C1.35517262,5.88283965 1.7367568,6.02913861 1.95046364,6.12397036 C2.37027489,6.31026032 2.86045349,6.4153007 3.02415909,6.45722623 C3.39618051,6.55250211 3.99882094,6.63458042 4.1635671,6.6748427 C4.32831326,6.71510499 4.58014216,6.76795147 4.88566431,6.95564605 C5.13255782,7.10732268 5.27477698,7.34518325 5.3170284,7.45499409 C5.41156447,7.70069205 5.33229956,8.08163959 5.26294678,8.21505459 C5.19359401,8.34846959 5.09165813,8.58476794 4.54091339,8.75798252 C4.14873911,8.88132515 3.43181071,8.86586891 3.15172135,8.82776312 C2.63590678,8.75758722 2.16988641,8.53158026 2.02145704,8.45166633 C1.61750207,8.23417818 1.67066492,8.23552945 1.67066492,8.23552945 C1.22684942,7.91524784 0.625441644,8.02451039 0.439508966,8.34388576 C0.439508966,8.34388576 0.635322288,7.98339103 0.439508966,8.34388576 C0.298008481,8.6043899 0.157758769,8.95149529 0.130392165,9.03271488 C0.0542729704,9.25862418 0.130392165,9.03271488 0.130392165,9.03271488 C0.0531156253,9.29643691 0.310016344,9.82763331 0.606796208,10.0321009 C0.606796208,10.0321009 0.0946578148,9.71207119 0.606796208,10.0321009 C1.05917223,10.3147858 1.90212573,10.6464085 2.40811595,10.7650905 C3.58559645,11.0412732 4.81380045,10.8654883 5.08301277,10.8200173 C5.66177889,10.7222614 6.42621582,10.2935861 6.42621582,10.2935861 C6.42621582,10.2935861 7.07368446,9.90536186 7.44256721,9.19695816 C7.77936728,8.55016614 7.84078764,7.58432764 7.83536338,7.45499409 C7.82818686,7.28388017 7.8334145,6.76161464 7.61113666,6.24716432 C7.43859873,5.8478344 7.08284914,5.45614033 6.77238472,5.21835403 C6.18280507,4.76679193 5.11596786,4.52937351 4.8591557,4.48155273 C4.80351573,4.47119205 4.44926177,4.41278221 4.09101905,4.34764731 C3.77009138,4.28929694 3.44596262,4.22554951 3.33044904,4.18611436 C2.86880271,4.02851301 2.66561034,3.73503309 2.63753421,3.68421161 C2.50604219,3.44619381 2.50572544,3.08903636 2.55919344,2.90122031 C2.66746646,2.52089168 3.09226039,2.22363235 3.2869888,2.14863124 C3.65291572,2.00769173 4.14114421,2.06887464 4.25479935,2.07928308 C4.52605086,2.10412408 5.06933107,2.21964436 5.06933107,2.21964436 C5.06933107,2.21964436 5.41149436,2.31939602 5.62565661,2.40973196 C5.83981887,2.5000679 6.12422466,2.66541746 6.12422466,2.66541746 L6.12422466,2.66541746 Z" id="path-11"></path>
        <filter x="-25.5%" y="-18.3%" width="151.0%" height="136.6%" filterUnits="objectBoundingBox" id="filter-12">
            <feGaussianBlur stdDeviation="1" in="SourceAlpha" result="shadowBlurInner1"></feGaussianBlur>
            <feOffset dx="0" dy="2" in="shadowBlurInner1" result="shadowOffsetInner1"></feOffset>
            <feComposite in="shadowOffsetInner1" in2="SourceAlpha" operator="arithmetic" k2="-1" k3="1" result="shadowInnerInner1"></feComposite>
            <feColorMatrix values="0 0 0 0 0.219607843   0 0 0 0 0.125490196   0 0 0 0 0.203921569  0 0 0 1 0" type="matrix" in="shadowInnerInner1"></feColorMatrix>
        </filter>
    </defs>
    <g id="Page-1" stroke="none" stroke-width="1" fill="none" fill-rule="evenodd">
        <g id="Integrations" transform="translate(-514.000000, -474.000000)">
            <g id="Group-17-Copy" transform="translate(484.000000, 444.000000)">
                <g id="Group-13">
                    <g id="icon/slack" transform="translate(30.000000, 30.000000)">
                        <g>
                            <g id="squares">
                                <mask id="mask-2" fill="white">
                                    <use xlink:href="#path-1"></use>
                                </mask>
                                <use id="background" fill="#F5F3F1" xlink:href="#path-1"></use>
                                <g mask="url(#mask-2)">
                                    <g transform="translate(15.024147, 15.124147) rotate(-19.000000) translate(-15.024147, -15.124147) translate(-6.275853, -6.175853)">
                                        <rect id="square-bottom-right" fill="url(#linearGradient-3)" x="28.4" y="28.4" width="14.2" height="14.2"></rect>
                                        <rect id="square-bottom-center" fill="url(#linearGradient-4)" x="14.2" y="28.4" width="14.2" height="14.2"></rect>
                                        <rect id="square-bottom-left" fill="url(#linearGradient-5)" x="0" y="28.4" width="14.2" height="14.2"></rect>
                                        <rect id="square-middle-right" fill="url(#linearGradient-6)" x="28.4" y="14.2" width="14.2" height="14.2"></rect>
                                        <rect id="square-middle-left" fill="url(#linearGradient-7)" x="8.81072992e-13" y="14.2" width="14.2" height="14.2"></rect>
                                        <rect id="square-top-right" fill="url(#linearGradient-8)" x="28.4" y="-7.10542736e-14" width="14.2" height="14.2"></rect>
                                        <rect id="square-top_center" fill="url(#linearGradient-9)" x="14.2" y="-8.81072992e-13" width="14.2" height="14.2"></rect>
                                        <rect id="square-top-left" fill="url(#linearGradient-10)" x="1.98951966e-12" y="-1.23634436e-12" width="14.2" height="14.2"></rect>
                                    </g>
                                </g>
                            </g>
                            <g id="letter" transform="translate(10.800000, 9.500000)">
                                <g>
                                    <use fill="#5C3A58" fill-rule="evenodd" xlink:href="#path-11"></use>
                                    <use fill="black" fill-opacity="1" filter="url(#filter-12)" xlink:href="#path-11"></use>
                                </g>
                            </g>
                        </g>
                    </g>
                </g>
            </g>
        </g>
    </g>
</svg>