<?xml version="1.0" encoding="UTF-8"?>
<svg width="26px" height="22px" viewBox="0 0 26 22" version="1.1" xmlns="http://www.w3.org/2000/svg" xmlns:xlink="http://www.w3.org/1999/xlink">
    <!-- Generator: Sketch 41 (35326) - http://www.bohemiancoding.com/sketch -->
    <title>autoreplier</title>
    <desc>Created with Sketch.</desc>
    <defs></defs>
    <g id="Final" stroke="none" stroke-width="1" fill="none" fill-rule="evenodd">
        <g id="AddTask1-1" transform="translate(-481.000000, -1489.000000)" fill="#2E81EC">
            <g id="Group-18-Copy-3" transform="translate(463.000000, 1467.000000)">
                <g id="Group-19" transform="translate(18.000000, 22.000000)">
                    <path d="M10.1111111,0 L0,10.1111111 L10.1111111,20.2222222 L10.1111111,14.3 C17.3333333,14.3 22.3888889,16.6111111 26,21.6666667 C24.5555556,14.4444444 20.2222222,7.22222222 10.1111111,5.77777778 L10.1111111,0 Z" id="autoreplier" transform="translate(13.000000, 10.833333) scale(-1, 1) translate(-13.000000, -10.833333) "></path>
                </g>
            </g>
        </g>
    </g>
</svg>