<?xml version="1.0" encoding="UTF-8"?>
<svg width="50px" height="32px" viewBox="0 0 50 32" version="1.1" xmlns="http://www.w3.org/2000/svg" xmlns:xlink="http://www.w3.org/1999/xlink">
    <!-- Generator: sketchtool 41 (35326) - http://www.bohemiancoding.com/sketch -->
    <title>D7FE629B-35F0-4A7E-9FDA-C203647630D8</title>
    <desc>Created with sketchtool.</desc>
    <defs></defs>
    <g id="Final" stroke="none" stroke-width="1" fill="none" fill-rule="evenodd" opacity="0.300000012">
        <g id="Prices" transform="translate(-770.000000, -702.000000)">
            <g id="Group-4" transform="translate(699.000000, 701.000000)">
                <g id="Group">
                    <g id="Imported-Layers" transform="translate(70.941176, 1.588235)">
                        <polyline id="Fill-1" fill="#13385B" opacity="0.600000024" points="34.7522674 30.5336033 35.5141184 30.5129516 36.265952 30.4567028 37.0027594 30.3594222 37.7345581 30.2257293 38.4465856 30.0564394 39.1485957 29.8510088 39.8355797 29.6099813 40.5078011 29.3379761 41.1649965 29.030102 41.802157 28.6964133 42.4195462 28.3268558 43.0219094 27.9317553 43.5994926 27.505949 44.157041 27.0540562 44.6948181 26.5768922 45.2078154 26.0690224 45.7005141 25.540229 46.1634243 24.9858928 46.6015545 24.4111765 47.0149048 23.8158084 47.3982028 23.1948974 47.7567209 22.5584977 48.0804417 21.9017179 48.3791189 21.2242863 48.6429988 20.531366 48.87709 19.8232285 49.0761203 19.0996023 49.2403532 18.3656502 49.3697888 17.6113181 49.4644271 16.851823 49.5192592 16.0768391 49.5390305 15.2918011 49.5192592 14.5116543 49.4644271 13.7418334 49.3697888 12.9823384 49.2403532 12.2380604 49.0761203 11.5041083 48.87709 10.785645 48.6429988 10.0775075 48.3791189 9.38975013 48.0804417 8.71748152 47.7567209 8.06070172 47.3982028 7.42946486 47.0149048 6.80855388 46.6015545 6.21318584 46.1634243 5.64336075 45.7005141 5.0892962 45.2078154 4.56050286 44.6948181 4.05752421 44.157041 3.58036023 43.5994926 3.1287392 43.0219094 2.70293285 42.4195462 2.30756065 41.802157 1.94316606 41.1649965 1.60974909 40.5078011 1.30187507 39.8355797 1.02986986 39.1485957 0.788570536 38.4465856 0.583140031 37.7345581 0.413850078 37.0027594 0.280428943 36.265952 0.182876627 35.5141184 0.126627798 34.7522674 0.105976054 33.9954251 0.126627798 33.2438552 0.182876627 32.5067842 0.280428943 31.7799941 0.413850078 31.0679666 0.583140031 30.3659565 0.788570536 29.6839813 1.02986986 29.0117598 1.30187507 28.3595732 1.60974909 27.7274214 1.94316606 27.1100322 2.30756065 26.5126777 2.70293285 25.9350945 3.1287392 25.3772825 3.58036023 24.8447777 4.05752421 24.3317804 4.56050286 23.8438267 5.0892962 23.3809166 5.64336075 22.9427864 6.21318584 22.5347084 6.80855388 22.1511468 7.42946486 21.7976374 8.06070172 21.4691715 8.71748152 21.175503 9.38975013 20.9113595 10.0775075 20.6825406 10.785645 20.4832467 11.5041083 20.3190138 12.2380604 20.1895782 12.9823384 20.09494 13.7418334 20.0403714 14.5116543 20.0203366 15.2918011 20.0403714 16.0768391 20.09494 16.851823 20.1895782 17.6113181 20.3190138 18.3656502 20.4832467 19.0996023 20.6825406 19.8232285 20.9113595 20.531366 21.175503 21.2242863 21.4691715 21.9017179 21.7976374 22.5584977 22.1511468 23.1948974 22.5347084 23.8158084 22.9427864 24.4111765 23.3809166 24.9858928 23.8438267 25.540229 24.3317804 26.0690224 24.8447777 26.5768922 25.3772825 27.0540562 25.9350945 27.505949 26.5126777 27.9317553 27.1100322 28.3268558 27.7274214 28.6964133 28.3595732 29.030102 29.0117598 29.3379761 29.6839813 29.6099813 30.3659565 29.8510088 31.0679666 30.0564394 31.7799941 30.2257293 32.5067842 30.3594222 33.2438552 30.4567028 33.9954251 30.5129516 34.7522674 30.5336033"></polyline>
                        <path d="M29.6773853,16.6618813 L29.6639464,16.851823 L29.5693082,17.6113181 L29.5596099,17.6678386 L26.9057296,17.6678386 L26.7565228,18.4939084 L29.4111729,18.4939084 L29.2756397,19.0996023 L29.165549,19.4998657 L20.5979198,19.4998657 L20.8467735,20.3262072 L28.9138958,20.3262072 L28.8475269,20.531366 L28.583647,21.2242863 L28.5347612,21.3370557 L21.2250629,21.3370557 L21.5986071,22.1633972 L28.1590036,22.1633972 L27.961249,22.5584977 L27.6221814,23.1693545 L22.1511468,23.1693545 L22.6541266,23.9954243 L27.1012496,23.9954243 L26.8161,24.4111765 L26.3782334,24.9858928 L26.3652918,25.0013816 L23.4056965,25.0013816 L24.1079702,25.832886 L25.6450051,25.832886 L25.427106,26.0690224 L24.9143724,26.5768922 L24.3816039,27.0540562 L23.8240555,27.505949 L23.2464723,27.9317553 L22.6491179,28.3268558 L22.0317286,28.6964133 L21.3995768,29.030102 L20.7471266,29.3379761 L20.0751687,29.6099813 L19.3929299,29.8510088 L18.6909198,30.0564394 L17.9788923,30.2257293 L17.2521023,30.3594222 L16.5152948,30.4567028 L15.7634613,30.5129516 L15.006619,30.5336033 L14.2450316,30.5129516 L13.4931981,30.4567028 L12.7563906,30.3594222 L12.0245919,30.2257293 L11.3125644,30.0564394 L10.6105543,29.8510088 L9.92357034,29.6099813 L9.25134889,29.3379761 L8.59415356,29.030102 L7.95672946,28.6964133 L7.3396038,28.3268558 L6.73697704,27.9317553 L6.15965744,27.505949 L5.60184544,27.0540562 L5.0643319,26.5768922 L4.55133466,26.0690224 L4.05863588,25.540229 L3.59546212,24.9858928 L3.1573319,24.4111765 L2.74424523,23.8158084 L2.36068357,23.1948974 L2.00242908,22.5584977 L1.67870832,21.9017179 L1.3800311,21.2242863 L1.11615123,20.531366 L0.882059993,19.8232285 L0.683029719,19.0996023 L0.518796792,18.3656502 L0.389097594,17.6113181 L0.294722974,16.851823 L0.239890793,16.0768391 L0.220119574,15.2918011 L0.239890793,14.5116543 L0.294722974,13.7418334 L0.389097594,12.9823384 L0.518796792,12.2380604 L0.683029719,11.5041083 L0.882059993,10.785645 L1.11615123,10.0775075 L1.3800311,9.38975013 L1.67870832,8.71748152 L2.00242908,8.06070172 L2.36068357,7.42946486 L2.74424523,6.80855388 L3.1573319,6.21318584 L3.59546212,5.64336075 L4.05863588,5.0892962 L4.55133466,4.56050286 L5.0643319,4.05752421 L5.60184544,3.58036023 L6.15965744,3.1287392 L6.73697704,2.70293285 L7.3396038,2.30756065 L7.95672946,1.94316606 L8.59415356,1.60974909 L9.25134889,1.30187507 L9.92357034,1.02986986 L10.6105543,0.788570536 L11.3125644,0.583140031 L12.0245919,0.413850078 L12.7563906,0.280428943 L13.4931981,0.182876627 L14.2450316,0.126627798 L15.006619,0.105976054 L15.7634613,0.126627798 L16.5152948,0.182876627 L17.2521023,0.280428943 L17.9788923,0.413850078 L18.6909198,0.583140031 L19.3929299,0.788570536 L20.0751687,1.02986986 L20.7471266,1.30187507 L21.3995768,1.60974909 L22.0317286,1.94316606 L22.6491179,2.30756065 L23.2464723,2.70293285 L23.8240555,3.1287392 L24.3816039,3.58036023 L24.9143724,4.05752421 L25.427106,4.56050286 L25.9150597,5.0892962 L25.9364125,5.11483915 L23.8290642,5.11483915 L23.1518341,5.94118064 L26.607085,5.94118064 L26.8161,6.21318584 L27.2244416,6.80855388 L27.3130721,6.95202915 L22.449824,6.95202915 L21.9768964,7.77837064 L27.8032541,7.77837064 L27.961249,8.06070172 L28.2899785,8.71748152 L28.3190605,8.78405622 L21.4494003,8.78405622 L21.100636,9.61039771 L28.6683054,9.61039771 L28.8475269,10.0775075 L29.0235143,10.621518 L20.7471266,10.621518 L20.4982728,11.4475877 L29.2599823,11.4475877 L29.2756397,11.5041083 L29.4398726,12.2380604 L29.477347,12.453545 L20.2989789,12.453545 L20.1447634,13.2798865 L29.6063847,13.2798865 L29.6639464,13.7418334 L29.7187786,14.5116543 L29.7388135,15.2918011 L29.7250686,15.8303769 L27.234459,15.8303769 L27.0849886,16.6618813 L29.6773853,16.6618813 Z" id="Combined-Shape" fill="#13385B"></path>
                        <polyline id="Fill-14" fill="#000000" points="19.8708661 15.8303769 20.9464205 15.8303769 20.9464205 16.6618813 19.9206896 16.6618813 19.8708661 15.8303769"></polyline>
                        <polyline id="Fill-15" fill="#FFFFFF" points="17.8644828 14.8298542 17.7948881 14.8246913 17.7250298 14.8143654 17.6604438 14.8040396 17.5955942 14.7939854 17.536017 14.7836596 17.4711674 14.7733337 17.4065814 14.7630078 17.3367231 14.7526819 17.2671284 14.7426278 17.1875163 14.7374649 17.0978868 14.7323019 17.0032485 14.727139 16.8985929 14.727139 16.7841834 14.7323019 16.6547478 14.7426278 16.5102861 14.7526819 16.4106392 14.7681707 16.3160009 14.7836596 16.2316437 14.8143654 16.1567767 14.8450713 16.087182 14.8809401 16.0223324 14.9222436 15.972509 14.9733295 15.9276942 15.0195242 15.8979056 15.0760448 15.872862 15.1325653 15.8631082 15.1942488 15.8631082 15.2556606 15.8781343 15.322507 15.8979056 15.3890817 15.9377116 15.4559282 15.9875351 15.5225029 16.087182 15.6200552 16.2066002 15.6969558 16.3460532 15.7638022 16.4955236 15.8203227 16.6547478 15.8714086 16.8189808 15.9279292 16.9832137 15.9896127 17.1427015 16.0564591 17.2919083 16.1434138 17.4313613 16.251292 17.5557882 16.3795502 17.6604438 16.538786 17.740056 16.7336189 17.7898794 16.9645924 17.8096506 17.2417605 17.7898794 17.5651234 17.7550821 17.8064227 17.6952412 18.0167444 17.6156291 18.211849 17.5159821 18.381139 17.4015727 18.5300489 17.2721371 18.6583071 17.1326841 18.7710765 16.978205 18.8686288 16.8189808 18.9455294 16.6547478 19.0123758 16.4855062 19.0637335 16.3112558 19.1047652 16.1420142 19.1354711 15.9775177 19.1509599 15.8132847 19.1612858 15.6588056 19.166177 15.4450128 19.166177 15.2457189 19.1612858 15.0714686 19.1612858 14.9072357 19.1558511 14.7577652 19.1509599 14.623321 19.140634 14.5039028 19.1303082 14.3894933 19.1150911 14.2848377 19.1047652 14.1901994 19.0841135 14.0955612 19.0686247 14.0109404 19.0430817 13.9263196 19.0227017 13.8467075 18.9917241 13.7670954 18.9610182 13.6824745 18.9303123 13.9065484 17.7960968 13.9513631 17.8064227 14.0061953 17.8216398 14.07579 17.8422915 14.1604108 17.8626715 14.2500403 17.8833233 14.3496873 17.9037033 14.459088 17.9292462 14.5785062 17.949898 14.7029331 17.9705497 14.8323686 17.9912015 14.9668129 18.0064185 15.1062659 18.0219073 15.2507276 18.0270703 15.3951894 18.0322332 15.5393874 18.0322332 15.6838492 18.0270703 15.8283109 17.9960927 15.9427203 17.9550609 16.0323498 17.8988121 16.1019445 17.8268027 16.151768 17.7550651 16.1918377 17.6730016 16.2166176 17.5906663 16.2363888 17.5137657 16.2464062 17.3648558 16.2015915 17.2365976 16.1169707 17.1338824 15.9925438 17.0469276 15.8430734 16.9697553 15.668823 16.8928548 15.4748015 16.8208454 15.2805163 16.7387819 15.081486 16.6463925 14.8922095 16.538786 14.7179592 16.4053649 14.558735 16.2461291 14.4340445 16.0510245 14.3446786 15.8203227 14.2998638 15.5431546 14.3048725 15.2146288 14.3296524 15.014633 14.3644498 14.8246913 14.4142733 14.6502384 14.4738505 14.4858397 14.5537263 14.3320385 14.6433558 14.1986174 14.7477478 14.0703592 14.8724383 13.9573181 15.0166364 13.8597657 15.1761242 13.7777022 15.3551197 13.7005299 15.5544136 13.6442811 15.7784874 13.5980864 16.0223324 13.5622176 16.291221 13.5415659 16.5848895 13.5364029 16.7691573 13.5364029 16.9383989 13.5415659 17.092878 13.5467288 17.232331 13.5518917 17.3567579 13.5622176 17.4711674 13.5725435 17.5708143 13.5825976 17.6604438 13.5929235 17.7450647 13.6032493 17.8146594 13.6184664 17.879509 13.6287923 17.9390862 13.6391182 17.9889097 13.649444 18.0339881 13.654607 18.0785392 13.6649328 18.1183453 13.6700958 17.8644828 14.8298542"></polyline>
                        <polyline id="Stroke-16" stroke="#FFFFFF" stroke-width="0.216" points="17.8644828 14.8298542 17.8644828 14.8298542 17.7948881 14.8246913 17.7250298 14.8143654 17.6604438 14.8040396 17.5955942 14.7939854 17.536017 14.7836596 17.4711674 14.7733337 17.4065814 14.7630078 17.3367231 14.7526819 17.2671284 14.7426278 17.1875163 14.7374649 17.0978868 14.7323019 17.0032485 14.727139 16.8985929 14.727139 16.7841834 14.7323019 16.6547478 14.7426278 16.5102861 14.7526819 16.4106392 14.7681707 16.3160009 14.7836596 16.2316437 14.8143654 16.1567767 14.8450713 16.087182 14.8809401 16.0223324 14.9222436 15.972509 14.9733295 15.9276942 15.0195242 15.8979056 15.0760448 15.872862 15.1325653 15.8631082 15.1942488 15.8631082 15.2556606 15.8781343 15.322507 15.8979056 15.3890817 15.9377116 15.4559282 15.9875351 15.5225029 16.087182 15.6200552 16.2066002 15.6969558 16.3460532 15.7638022 16.4955236 15.8203227 16.6547478 15.8714086 16.8189808 15.9279292 16.9832137 15.9896127 17.1427015 16.0564591 17.2919083 16.1434138 17.4313613 16.251292 17.5557882 16.3795502 17.6604438 16.538786 17.740056 16.7336189 17.7898794 16.9645924 17.8096506 17.2417605 17.7898794 17.5651234 17.7550821 17.8064227 17.6952412 18.0167444 17.6156291 18.211849 17.5159821 18.381139 17.4015727 18.5300489 17.2721371 18.6583071 17.1326841 18.7710765 16.978205 18.8686288 16.8189808 18.9455294 16.6547478 19.0123758 16.4855062 19.0637335 16.3112558 19.1047652 16.1420142 19.1354711 15.9775177 19.1509599 15.8132847 19.1612858 15.6588056 19.166177 15.4450128 19.166177 15.2457189 19.1612858 15.0714686 19.1612858 14.9072357 19.1558511 14.7577652 19.1509599 14.623321 19.140634 14.5039028 19.1303082 14.3894933 19.1150911 14.2848377 19.1047652 14.1901994 19.0841135 14.0955612 19.0686247 14.0109404 19.0430817 13.9263196 19.0227017 13.8467075 18.9917241 13.7670954 18.9610182 13.6824745 18.9303123 13.9065484 17.7960968 13.9513631 17.8064227 14.0061953 17.8216398 14.07579 17.8422915 14.1604108 17.8626715 14.2500403 17.8833233 14.3496873 17.9037033 14.459088 17.9292462 14.5785062 17.949898 14.7029331 17.9705497 14.8323686 17.9912015 14.9668129 18.0064185 15.1062659 18.0219073 15.2507276 18.0270703 15.3951894 18.0322332 15.5393874 18.0322332 15.6838492 18.0270703 15.8283109 17.9960927 15.9427203 17.9550609 16.0323498 17.8988121 16.1019445 17.8268027 16.151768 17.7550651 16.1918377 17.6730016 16.2166176 17.5906663 16.2363888 17.5137657 16.2464062 17.3648558 16.2015915 17.2365976 16.1169707 17.1338824 15.9925438 17.0469276 15.8430734 16.9697553 15.668823 16.8928548 15.4748015 16.8208454 15.2805163 16.7387819 15.081486 16.6463925 14.8922095 16.538786 14.7179592 16.4053649 14.558735 16.2461291 14.4340445 16.0510245 14.3446786 15.8203227 14.2998638 15.5431546 14.3048725 15.2146288 14.3296524 15.014633 14.3644498 14.8246913 14.4142733 14.6502384 14.4738505 14.4858397 14.5537263 14.3320385 14.6433558 14.1986174 14.7477478 14.0703592 14.8724383 13.9573181 15.0166364 13.8597657 15.1761242 13.7777022 15.3551197 13.7005299 15.5544136 13.6442811 15.7784874 13.5980864 16.0223324 13.5622176 16.291221 13.5415659 16.5848895 13.5364029 16.7691573 13.5364029 16.9383989 13.5415659 17.092878 13.5467288 17.232331 13.5518917 17.3567579 13.5622176 17.4711674 13.5725435 17.5708143 13.5825976 17.6604438 13.5929235 17.7450647 13.6032493 17.8146594 13.6184664 17.879509 13.6287923 17.9390862 13.6391182 17.9889097 13.649444 18.0339881 13.654607 18.0785392 13.6649328 18.1183453 13.6700958 17.8644828 14.8298542"></polyline>
                        <polyline id="Fill-17" fill="#FFFFFF" points="19.0444292 12.4024591 20.4236694 12.4024591 20.2193668 13.6442811 21.0508125 13.6442811 20.8715535 14.8040396 19.995293 14.7784966 19.5173567 17.6420239 19.512348 17.7447392 19.5373916 17.8319656 19.5872151 17.8988121 19.651801 17.9550609 19.7414306 17.9912015 19.8410775 18.0219073 19.9504783 18.0422874 20.07016 18.0526132 20.1795608 18.0474503 20.2792077 18.0371244 20.3688373 18.0219073 20.4484494 18.0012556 20.513299 17.9808756 20.5581137 17.9653868 20.5879024 17.9550609 20.5979198 17.949898 20.4236694 18.9044977 20.3888721 18.9303123 20.3538111 18.9506923 20.3190138 18.9713441 20.2842164 18.9917241 20.2494191 19.0072129 20.209613 19.0227017 20.1647983 19.0379188 20.1199835 19.0534076 20.07016 19.0686247 20.0203366 19.0789505 19.9604957 19.0892764 19.9009184 19.0996023 19.8360688 19.1099282 19.7614654 19.1199823 19.6818533 19.1303082 19.5972325 19.140634 19.2186795 19.140634 19.0196493 19.1251452 18.8453989 19.1047652 18.6859111 19.0740593 18.5517304 19.0379188 18.4370573 18.9917241 18.3426827 18.9406382 18.2577983 18.8789547 18.1929487 18.8121083 18.1433888 18.7403706 18.1085915 18.6531442 18.0835479 18.5659178 18.0687854 18.4683654 18.0637767 18.3604872 18.0637767 18.2477179 18.0785392 18.1297855 18.0935654 18.0012556 19.0444292 12.4024591"></polyline>
                        <polyline id="Stroke-18" stroke="#FFFFFF" stroke-width="0.216" points="19.0444292 12.4024591 20.4236694 12.4024591 20.2193668 13.6442811 21.0508125 13.6442811 20.8715535 14.8040396 19.995293 14.7784966 19.5173567 17.6420239 19.512348 17.7447392 19.5373916 17.8319656 19.5872151 17.8988121 19.651801 17.9550609 19.7414306 17.9912015 19.8410775 18.0219073 19.9504783 18.0422874 20.07016 18.0526132 20.1795608 18.0474503 20.2792077 18.0371244 20.3688373 18.0219073 20.4484494 18.0012556 20.513299 17.9808756 20.5581137 17.9653868 20.5879024 17.9550609 20.5979198 17.949898 20.4236694 18.9044977 20.3888721 18.9303123 20.3538111 18.9506923 20.3190138 18.9713441 20.2842164 18.9917241 20.2494191 19.0072129 20.209613 19.0227017 20.1647983 19.0379188 20.1199835 19.0534076 20.07016 19.0686247 20.0203366 19.0789505 19.9604957 19.0892764 19.9009184 19.0996023 19.8360688 19.1099282 19.7614654 19.1199823 19.6818533 19.1303082 19.5972325 19.140634 19.2186795 19.140634 19.0196493 19.1251452 18.8453989 19.1047652 18.6859111 19.0740593 18.5517304 19.0379188 18.4370573 18.9917241 18.3426827 18.9406382 18.2577983 18.8789547 18.1929487 18.8121083 18.1433888 18.7403706 18.1085915 18.6531442 18.0835479 18.5659178 18.0687854 18.4683654 18.0637767 18.3604872 18.0637767 18.2477179 18.0785392 18.1297855 18.0935654 18.0012556 19.0444292 12.4024591"></polyline>
                        <polyline id="Fill-19" fill="#FFFFFF" points="22.1511468 16.7387819 22.1361206 16.8260083 22.1313755 16.9183977 22.1411293 17.01595 22.1611642 17.1135023 22.1959615 17.2110547 22.2357676 17.303444 22.2905998 17.4009964 22.3504407 17.4882228 22.4200353 17.5754492 22.4949024 17.6523498 22.5745145 17.7292504 22.664144 17.7909339 22.7535099 17.8474545 22.8531569 17.8936491 22.9528038 17.9292462 23.0524507 17.949898 23.1818863 17.9705497 23.3063132 17.9860385 23.4357488 18.0012556 23.5651844 18.0115815 23.6946199 18.0167444 23.8290642 18.0167444 23.9584998 18.0115815 24.0929441 18.0012556 24.2273884 17.9808756 24.3618327 17.9550609 24.5010221 17.924355 24.63573 17.8781603 24.7749194 17.8216398 24.9193811 17.760228 25.0588341 17.6781645 25.2030322 17.5906663 25.0040019 18.85314 24.8447777 18.9354753 24.7649019 18.9661812 24.6902985 18.996887 24.6156951 19.0227017 24.536083 19.0482447 24.4564709 19.0686247 24.3718501 19.0841135 24.281957 19.0996023 24.1825736 19.1099282 24.077918 19.1199823 23.9635085 19.1303082 23.8340729 19.1354711 23.6996287 19.1354711 23.5451495 19.140634 23.3809166 19.140634 23.1370716 19.1354711 22.8879542 19.1099282 22.6391005 19.0740593 22.3902467 19.0123758 22.1461381 18.9354753 21.9123104 18.8376512 21.6882366 18.7096648 21.4791889 18.5607548 21.2849037 18.3863019 21.1156621 18.1757085 20.9712004 17.9398438 20.8517822 17.6678386 20.7671614 17.3648558 20.7123292 17.021113 20.6973031 16.6412296 20.7223467 16.2205862 20.7421179 16.0564591 20.7721701 15.8665174 20.8119762 15.6662499 20.8668084 15.4507652 20.9414118 15.2301176 21.0310413 15.0094701 21.1457144 14.7836596 21.2849037 14.5679032 21.444128 14.3627444 21.6384131 14.1676398 21.8574783 13.9931869 22.106332 13.8393857 22.3952554 13.7108558 22.7187126 13.6184664 23.0772307 13.5570547 23.4805635 13.5364029 23.6745851 13.5415659 23.8788877 13.5622176 24.0829267 13.5980864 24.2869657 13.649444 24.4862596 13.7263446 24.6805447 13.818734 24.8595402 13.9418293 25.0240367 14.0855763 25.1732435 14.2600292 25.2976704 14.4654597 25.3973173 14.701596 25.466912 14.9733295 25.5067181 15.2814753 25.5117268 15.6303811 25.4769295 16.0203186 25.402326 16.4515596 25.3772825 16.7645966 22.1466653 16.7645966 22.3140616 15.7534763 24.1575301 15.7534763 24.1675475 15.6252181 24.1625388 15.5021229 24.1525214 15.3890817 24.1327502 15.2863665 24.0979528 15.1890859 24.0628919 15.1018594 24.013332 15.0246871 23.9635085 14.9529495 23.9036676 14.891266 23.8390817 14.8399084 23.7642146 14.7939854 23.6896112 14.7526819 23.6099991 14.7219761 23.530387 14.701596 23.4457662 14.6861072 23.3561367 14.6757814 23.2614984 14.6809443 23.1718689 14.6964331 23.0872481 14.7168131 23.0026273 14.747519 22.9180065 14.7888225 22.8431394 14.8350172 22.768536 14.891266 22.7039501 14.9529495 22.6391005 15.0246871 22.5792596 15.1018594 22.5244274 15.183923 22.4798762 15.2711494 22.4350615 15.3635388 22.4002641 15.466254 22.3702119 15.5686976 22.3504407 15.6765757 22.1511468 16.7387819"></polyline>
                        <polyline id="Stroke-20" stroke="#FFFFFF" stroke-width="0.216" points="22.1511468 16.7387819 22.1511468 16.7387819 22.1361206 16.8260083 22.1313755 16.9183977 22.1411293 17.01595 22.1611642 17.1135023 22.1959615 17.2110547 22.2357676 17.303444 22.2905998 17.4009964 22.3504407 17.4882228 22.4200353 17.5754492 22.4949024 17.6523498 22.5745145 17.7292504 22.664144 17.7909339 22.7535099 17.8474545 22.8531569 17.8936491 22.9528038 17.9292462 23.0524507 17.949898 23.1818863 17.9705497 23.3063132 17.9860385 23.4357488 18.0012556 23.5651844 18.0115815 23.6946199 18.0167444 23.8290642 18.0167444 23.9584998 18.0115815 24.0929441 18.0012556 24.2273884 17.9808756 24.3618327 17.9550609 24.5010221 17.924355 24.63573 17.8781603 24.7749194 17.8216398 24.9193811 17.760228 25.0588341 17.6781645 25.2030322 17.5906663 25.0040019 18.85314 24.8447777 18.9354753 24.7649019 18.9661812 24.6902985 18.996887 24.6156951 19.0227017 24.536083 19.0482447 24.4564709 19.0686247 24.3718501 19.0841135 24.281957 19.0996023 24.1825736 19.1099282 24.077918 19.1199823 23.9635085 19.1303082 23.8340729 19.1354711 23.6996287 19.1354711 23.5451495 19.140634 23.3809166 19.140634 23.1370716 19.1354711 22.8879542 19.1099282 22.6391005 19.0740593 22.3902467 19.0123758 22.1461381 18.9354753 21.9123104 18.8376512 21.6882366 18.7096648 21.4791889 18.5607548 21.2849037 18.3863019 21.1156621 18.1757085 20.9712004 17.9398438 20.8517822 17.6678386 20.7671614 17.3648558 20.7123292 17.021113 20.6973031 16.6412296 20.7223467 16.2205862 20.7421179 16.0564591 20.7721701 15.8665174 20.8119762 15.6662499 20.8668084 15.4507652 20.9414118 15.2301176 21.0310413 15.0094701 21.1457144 14.7836596 21.2849037 14.5679032 21.444128 14.3627444 21.6384131 14.1676398 21.8574783 13.9931869 22.106332 13.8393857 22.3952554 13.7108558 22.7187126 13.6184664 23.0772307 13.5570547 23.4805635 13.5364029 23.6745851 13.5415659 23.8788877 13.5622176 24.0829267 13.5980864 24.2869657 13.649444 24.4862596 13.7263446 24.6805447 13.818734 24.8595402 13.9418293 25.0240367 14.0855763 25.1732435 14.2600292 25.2976704 14.4654597 25.3973173 14.701596 25.466912 14.9733295 25.5067181 15.2814753 25.5117268 15.6303811 25.4769295 16.0203186 25.402326 16.4515596 25.3772825 16.7645966 22.1466653 16.7645966 22.3140616 15.7534763 24.1575301 15.7534763 24.1675475 15.6252181 24.1625388 15.5021229 24.1525214 15.3890817 24.1327502 15.2863665 24.0979528 15.1890859 24.0628919 15.1018594 24.013332 15.0246871 23.9635085 14.9529495 23.9036676 14.891266 23.8390817 14.8399084 23.7642146 14.7939854 23.6896112 14.7526819 23.6099991 14.7219761 23.530387 14.701596 23.4457662 14.6861072 23.3561367 14.6757814 23.2614984 14.6809443 23.1718689 14.6964331 23.0872481 14.7168131 23.0026273 14.747519 22.9180065 14.7888225 22.8431394 14.8350172 22.768536 14.891266 22.7039501 14.9529495 22.6391005 15.0246871 22.5792596 15.1018594 22.5244274 15.183923 22.4798762 15.2711494 22.4350615 15.3635388 22.4002641 15.466254 22.3702119 15.5686976 22.3504407 15.6765757 22.1511468 16.7387819"></polyline>
                        <polyline id="Fill-21" fill="#FFFFFF" points="34.0254774 13.9521551 33.9606278 13.9162863 33.8960418 13.8855804 33.8261835 13.8494399 33.7515801 13.8135711 33.6769767 13.7828652 33.5923559 13.7521593 33.5077351 13.7211817 33.4181055 13.6904758 33.3234673 13.6649328 33.2288291 13.6442811 33.124437 13.6236294 33.0197814 13.6084123 32.9051083 13.5980864 32.7906989 13.5877605 32.4221633 13.5877605 32.2927278 13.5980864 32.1582835 13.6135752 32.0190941 13.6391182 31.8796411 13.6801499 31.7401881 13.7366705 31.6007351 13.8084081 31.4612821 13.9007975 31.3271014 14.0138386 31.1974022 14.1472598 31.0729753 14.3113868 30.9535572 14.5013285 30.8441564 14.727139 30.7395008 14.9836554 30.6448625 15.2711494 30.5652504 15.5996752 30.5354618 15.7841822 30.515427 15.963798 30.5054095 16.1434138 30.5104182 16.3181385 30.5254444 16.4925914 30.5602417 16.6567184 30.6050565 16.8107913 30.6598887 16.9645924 30.7344921 17.1031765 30.8241216 17.2365976 30.9285136 17.3548017 31.0481954 17.4624081 31.1826397 17.5547975 31.3368552 17.6316981 31.5060968 17.6985445 31.6953733 17.7447392 31.7599593 17.760228 31.8348263 17.7754451 31.9244558 17.785771 32.0238392 17.7960968 32.1335035 17.8064227 32.3726035 17.8064227 32.4970303 17.7960968 32.6264659 17.780608 32.7559015 17.7550651 32.8803284 17.7191963 33.0047553 17.6781645 33.1291821 17.6216439 33.2438552 17.5547975 33.3482472 17.472734 33.4478942 17.3803446 33.2238204 18.7506965 33.1940317 18.7762395 33.1642431 18.8069453 33.124437 18.8430859 33.0793587 18.8737918 33.0247901 18.9148235 32.9549318 18.9506923 32.8753197 18.9865612 32.7856901 19.0175388 32.6712807 19.0534076 32.5418451 19.0789505 32.3923747 19.0996023 32.2181243 19.1199823 32.0238392 19.1303082 31.800029 19.1354711 31.5459029 19.1303082 31.2672605 19.1150911 31.038178 19.0892764 30.8090955 19.0379188 30.5802766 18.9610182 30.351194 18.858303 30.1321289 18.7352077 29.9228176 18.5811348 29.7237873 18.401519 29.5395196 18.1963602 29.3752866 17.9653868 29.2358336 17.7088704 29.1164155 17.4213764 29.026786 17.1083394 28.9672087 16.7645966 28.9471738 16.400202 28.9571913 15.9999386 29.0117598 15.5738605 29.0515659 15.3635388 29.0966443 15.1581083 29.1462041 14.9581124 29.1960276 14.7681707 29.2508598 14.5885549 29.3154458 14.4089391 29.3802954 14.2396491 29.44989 14.0804133 29.5247571 13.9214492 29.5993605 13.7725393 29.6839813 13.6287923 29.7736108 13.4953712 29.8632403 13.367113 29.9628873 13.2440177 30.0622706 13.1309766 30.1669263 13.0233701 30.2813357 12.9206549 30.3960088 12.8231026 30.515427 12.7358761 30.6398538 12.6538126 30.7742981 12.576912 30.9087424 12.5100656 31.0481954 12.4486538 31.1926571 12.3921333 31.3468726 12.3407756 31.5010881 12.2997439 31.660576 12.2638751 31.8298176 12.2328974 31.9990592 12.2070828 32.1783183 12.1867028 32.3575773 12.1763769 32.5468538 12.1714857 32.706078 12.1763769 32.8602935 12.1867028 33.009764 12.2019198 33.1589708 12.2225716 33.2986874 12.2432233 33.4331317 12.2739292 33.5623036 12.2997439 33.6819854 12.3304498 33.7963949 12.3611556 33.8960418 12.3921333 33.9906801 12.4228391 34.0702922 12.453545 34.1398869 12.4793597 34.1997277 12.4997397 34.2445425 12.5203915 34.2743311 12.5307173 34.0254774 13.9521551"></polyline>
                        <polyline id="Stroke-22" stroke="#FFFFFF" stroke-width="0.216" points="34.0254774 13.9521551 34.0254774 13.9521551 33.9606278 13.9162863 33.8960418 13.8855804 33.8261835 13.8494399 33.7515801 13.8135711 33.6769767 13.7828652 33.5923559 13.7521593 33.5077351 13.7211817 33.4181055 13.6904758 33.3234673 13.6649328 33.2288291 13.6442811 33.124437 13.6236294 33.0197814 13.6084123 32.9051083 13.5980864 32.7906989 13.5877605 32.4221633 13.5877605 32.2927278 13.5980864 32.1582835 13.6135752 32.0190941 13.6391182 31.8796411 13.6801499 31.7401881 13.7366705 31.6007351 13.8084081 31.4612821 13.9007975 31.3271014 14.0138386 31.1974022 14.1472598 31.0729753 14.3113868 30.9535572 14.5013285 30.8441564 14.727139 30.7395008 14.9836554 30.6448625 15.2711494 30.5652504 15.5996752 30.5354618 15.7841822 30.515427 15.963798 30.5054095 16.1434138 30.5104182 16.3181385 30.5254444 16.4925914 30.5602417 16.6567184 30.6050565 16.8107913 30.6598887 16.9645924 30.7344921 17.1031765 30.8241216 17.2365976 30.9285136 17.3548017 31.0481954 17.4624081 31.1826397 17.5547975 31.3368552 17.6316981 31.5060968 17.6985445 31.6953733 17.7447392 31.7599593 17.760228 31.8348263 17.7754451 31.9244558 17.785771 32.0238392 17.7960968 32.1335035 17.8064227 32.3726035 17.8064227 32.4970303 17.7960968 32.6264659 17.780608 32.7559015 17.7550651 32.8803284 17.7191963 33.0047553 17.6781645 33.1291821 17.6216439 33.2438552 17.5547975 33.3482472 17.472734 33.4478942 17.3803446 33.2238204 18.7506965 33.1940317 18.7762395 33.1642431 18.8069453 33.124437 18.8430859 33.0793587 18.8737918 33.0247901 18.9148235 32.9549318 18.9506923 32.8753197 18.9865612 32.7856901 19.0175388 32.6712807 19.0534076 32.5418451 19.0789505 32.3923747 19.0996023 32.2181243 19.1199823 32.0238392 19.1303082 31.800029 19.1354711 31.5459029 19.1303082 31.2672605 19.1150911 31.038178 19.0892764 30.8090955 19.0379188 30.5802766 18.9610182 30.351194 18.858303 30.1321289 18.7352077 29.9228176 18.5811348 29.7237873 18.401519 29.5395196 18.1963602 29.3752866 17.9653868 29.2358336 17.7088704 29.1164155 17.4213764 29.026786 17.1083394 28.9672087 16.7645966 28.9471738 16.400202 28.9571913 15.9999386 29.0117598 15.5738605 29.0515659 15.3635388 29.0966443 15.1581083 29.1462041 14.9581124 29.1960276 14.7681707 29.2508598 14.5885549 29.3154458 14.4089391 29.3802954 14.2396491 29.44989 14.0804133 29.5247571 13.9214492 29.5993605 13.7725393 29.6839813 13.6287923 29.7736108 13.4953712 29.8632403 13.367113 29.9628873 13.2440177 30.0622706 13.1309766 30.1669263 13.0233701 30.2813357 12.9206549 30.3960088 12.8231026 30.515427 12.7358761 30.6398538 12.6538126 30.7742981 12.576912 30.9087424 12.5100656 31.0481954 12.4486538 31.1926571 12.3921333 31.3468726 12.3407756 31.5010881 12.2997439 31.660576 12.2638751 31.8298176 12.2328974 31.9990592 12.2070828 32.1783183 12.1867028 32.3575773 12.1763769 32.5468538 12.1714857 32.706078 12.1763769 32.8602935 12.1867028 33.009764 12.2019198 33.1589708 12.2225716 33.2986874 12.2432233 33.4331317 12.2739292 33.5623036 12.2997439 33.6819854 12.3304498 33.7963949 12.3611556 33.8960418 12.3921333 33.9906801 12.4228391 34.0702922 12.453545 34.1398869 12.4793597 34.1997277 12.4997397 34.2445425 12.5203915 34.2743311 12.5307173 34.0254774 13.9521551"></polyline>
                        <path d="M46.2831061,19.140634 L44.9038658,19.140634 L45.0035128,18.5710807 L45.0035128,18.5197231 L44.9239007,18.6221666 L44.8392798,18.714556 L44.754659,18.7968912 L44.6650295,18.8686288 L44.5754,18.9354753 L44.4857704,18.9917241 L44.3961409,19.0379188 L44.3015027,19.0841135 L44.2068644,19.1199823 L44.1122262,19.145797 L44.017588,19.1713399 L43.9182046,19.1868287 L43.8185577,19.2023175 L43.7239195,19.2123717 L43.6242725,19.2175346 L43.5248892,19.2175346 L43.266018,19.1971546 L43.0269181,19.140634 L42.807853,19.0534076 L42.6088227,18.9354753 L42.4295636,18.7865653 L42.2700758,18.6121124 L42.1308864,18.4221707 L42.0112046,18.2066861 L41.9115577,17.9757126 L41.8319456,17.7344133 L41.7771134,17.4830599 L41.7373074,17.2213805 L41.7225448,16.9594295 L41.7275536,16.6925872 L41.7523335,16.4309079 L41.7971482,16.1692285 L41.8717516,15.8665174 L41.9616448,15.5790234 L42.0660368,15.3173441 L42.1904637,15.0708818 L42.3198993,14.8399084 L42.4693697,14.6347496 L42.6235852,14.4499708 L42.7880818,14.2806809 L42.9623321,14.131771 L43.1463362,14.0035128 L43.3356127,13.8907434 L43.5248892,13.8032452 L43.7239195,13.7315075 L43.9229497,13.6853129 L44.1222436,13.654607 L44.3262826,13.6442811 L44.4707443,13.649444 L44.6101973,13.6649328 L44.7396329,13.6904758 L44.8590511,13.7263446 L44.9737241,13.7673764 L45.0731075,13.8135711 L45.1727544,13.8700916 L45.2623839,13.9266122 L45.341996,13.9880239 L45.4168631,14.0548704 L45.481449,14.1214451 L45.5412899,14.1882915 L45.5908498,14.2548662 L45.6359282,14.3217126 L45.6757342,14.3833961 L45.7055229,14.4448079 L46.0540235,12.4280021 L47.4082203,12.4280021 L46.2831061,19.140634 Z M44.0276054,17.8988121 L44.1670584,17.8884862 L44.296494,17.8577803 L44.4159121,17.8216398 L44.5305852,17.7651192 L44.6349772,17.7037074 L44.7346242,17.6265351 L44.8292624,17.5395804 L44.9138832,17.4469193 L44.9884866,17.3444758 L45.0583449,17.2314347 L45.1229309,17.1135023 L45.1777631,16.9904071 L45.2275866,16.8621489 L45.2673926,16.7287277 L45.30219,16.5901437 L45.3272335,16.4515596 L45.3520135,16.3078126 L45.3670396,16.1589027 L45.3670396,16.0203186 L45.3620309,15.8768433 L45.3470048,15.7431504 L45.3272335,15.6148922 L45.2921726,15.491797 L45.2523665,15.3735929 L45.2028067,15.2711494 L45.1429658,15.1735971 L45.0781162,15.0915336 L45.0035128,15.0195242 L44.918892,14.9581124 L44.8292624,14.9170807 L44.7346242,14.891266 L44.6299685,14.8809401 L44.4955242,14.891266 L44.371361,14.9119178 L44.2566879,14.9529495 L44.1422785,15.0043071 L44.0426315,15.0708818 L43.9429846,15.1532171 L43.8583638,15.2401718 L43.7737429,15.3377241 L43.6991395,15.4507652 L43.6292812,15.5686976 L43.5646952,15.6917928 L43.5098631,15.825214 L43.4600396,15.963798 L43.4202335,16.1023821 L43.3804275,16.251292 L43.3506388,16.400202 L43.3255953,16.6260125 L43.3356127,16.872203 L43.3704101,17.1238282 L43.4352597,17.3648558 L43.5349066,17.5754492 L43.6643422,17.7447392 L43.8285751,17.8577803 L44.0276054,17.8988121 Z" id="Combined-Shape" fill="#FFFFFF"></path>
                        <polyline id="Stroke-24" stroke="#FFFFFF" stroke-width="0.216" points="46.2831061 19.140634 44.9038658 19.140634 45.0035128 18.5710807 45.0035128 18.5197231 44.9239007 18.6221666 44.8392798 18.714556 44.754659 18.7968912 44.6650295 18.8686288 44.5754 18.9354753 44.4857704 18.9917241 44.3961409 19.0379188 44.3015027 19.0841135 44.2068644 19.1199823 44.1122262 19.145797 44.017588 19.1713399 43.9182046 19.1868287 43.8185577 19.2023175 43.7239195 19.2123717 43.6242725 19.2175346 43.5248892 19.2175346 43.266018 19.1971546 43.0269181 19.140634 42.807853 19.0534076 42.6088227 18.9354753 42.4295636 18.7865653 42.2700758 18.6121124 42.1308864 18.4221707 42.0112046 18.2066861 41.9115577 17.9757126 41.8319456 17.7344133 41.7771134 17.4830599 41.7373074 17.2213805 41.7225448 16.9594295 41.7275536 16.6925872 41.7523335 16.4309079 41.7971482 16.1692285 41.8717516 15.8665174 41.9616448 15.5790234 42.0660368 15.3173441 42.1904637 15.0708818 42.3198993 14.8399084 42.4693697 14.6347496 42.6235852 14.4499708 42.7880818 14.2806809 42.9623321 14.131771 43.1463362 14.0035128 43.3356127 13.8907434 43.5248892 13.8032452 43.7239195 13.7315075 43.9229497 13.6853129 44.1222436 13.654607 44.3262826 13.6442811 44.4707443 13.649444 44.6101973 13.6649328 44.7396329 13.6904758 44.8590511 13.7263446 44.9737241 13.7673764 45.0731075 13.8135711 45.1727544 13.8700916 45.2623839 13.9266122 45.341996 13.9880239 45.4168631 14.0548704 45.481449 14.1214451 45.5412899 14.1882915 45.5908498 14.2548662 45.6359282 14.3217126 45.6757342 14.3833961 45.7055229 14.4448079 46.0540235 12.4280021 47.4082203 12.4280021 46.2831061 19.140634"></polyline>
                        <path d="M13.453392,18.0012556 L13.2543617,19.140634 L11.9995484,19.140634 L12.0343457,18.9303123 L12.0593892,18.7403706 L12.0791605,18.5966236 L12.0991953,18.5197231 L12.0296006,18.6017866 L11.9497249,18.6838501 L11.8553503,18.7607507 L11.7506946,18.83276 L11.6312764,18.9044977 L11.506586,18.9661812 L11.3771504,19.0275929 L11.2427061,19.0789505 L11.098508,19.1251452 L10.9540463,19.1612858 L10.8095846,19.1919917 L10.6603778,19.2123717 L10.5159161,19.2226976 L10.3714544,19.2278605 L10.232265,19.2123717 L10.0978207,19.1919917 L9.92357034,19.145797 L9.76408251,19.0944394 L9.62489312,19.0275929 L9.50020264,18.9506923 L9.39080189,18.8686288 L9.29115494,18.7762395 L9.21154284,18.6786871 L9.14168453,18.5762436 L9.08210725,18.4683654 L9.03228378,18.3553243 L8.99247773,18.2425549 L8.96268909,18.1297855 L8.94265425,18.0115815 L8.92789174,17.8936491 L8.91787433,17.780608 L8.91787433,17.6678386 L8.93263684,17.4675711 L8.96268909,17.2776294 L9.01224895,17.0980135 L9.07709854,16.9235606 L9.15671065,16.7594336 L9.24634018,16.6105237 L9.35099583,16.4667767 L9.470414,16.3385185 L9.59484087,16.2205862 L9.73429387,16.112708 L9.87875558,16.0151556 L10.0279624,15.9330921 L10.1874502,15.8613545 L10.3516831,15.8048339 L10.5209248,15.7586393 L10.6951751,15.7279334 L10.7051925,15.7279334 L10.7299725,15.7227704 L10.7650334,15.7176075 L10.8198656,15.7124446 L10.8794429,15.7021187 L10.9490376,15.6969558 L11.023641,15.6869016 L11.1085254,15.6765757 L11.1931462,15.6662499 L11.2777671,15.655924 L11.3673966,15.6507611 L11.4470087,15.6407069 L11.5266208,15.635544 L11.6012242,15.6303811 L11.6710825,15.6252181 L11.8403241,15.6252181 L11.9597423,15.6303811 L12.0694067,15.635544 L12.1788074,15.635544 L12.2684369,15.6407069 L12.3380316,15.6458699 L12.3878551,15.6507611 L12.4028812,15.6507611 L12.4128986,15.6148922 L12.4426873,15.5225029 L12.4677308,15.4148964 L12.4777482,15.3173441 L12.4577134,15.204303 L12.4128986,15.1018594 L12.3530578,15.0094701 L12.2734456,14.9322978 L12.1788074,14.8657231 L12.0741518,14.8195284 L11.9547336,14.7888225 L11.825298,14.7784966 L11.6861086,14.7733337 L11.5366382,14.7681707 L11.3821591,14.7681707 L11.2229349,14.7733337 L11.0587019,14.7836596 L10.8992141,14.7988766 L10.7399899,14.8143654 L10.5855108,14.8350172 L10.436304,14.8553972 L10.2918423,14.8809401 L10.1624067,14.9067548 L10.0429885,14.9322978 L9.93332414,14.9632754 L9.84395823,14.9939813 L9.77409993,15.0298501 L9.71926774,15.060556 L10.0727771,13.8238969 L10.1824415,13.7777022 L10.2918423,13.7366705 L10.4112604,13.7005299 L10.5309422,13.674987 L10.6503604,13.649444 L10.7797959,13.6287923 L10.9092315,13.6084123 L11.0436758,13.5980864 L11.1831288,13.5877605 L11.3273269,13.5825976 L11.4767973,13.5774347 L11.9547336,13.5774347 L12.1289839,13.5825976 L12.3032343,13.5877605 L12.4426873,13.5980864 L12.5921577,13.6236294 L12.7463732,13.6597699 L12.9055974,13.7059646 L13.0600766,13.7673764 L13.2092834,13.8393857 L13.3587538,13.9266122 L13.4982068,14.0241645 L13.6226336,14.1369339 L13.732298,14.2600292 L13.8316813,14.3986132 L13.9065484,14.5526861 L13.9561082,14.7168131 L13.9861605,14.891266 L13.9861605,15.0863706 L13.9561082,15.2918011 L13.453392,18.0012556 Z M12.2534108,16.6618813 L12.2484021,16.6360666 L12.2286309,16.6105237 L12.1988422,16.5950349 L12.1490188,16.5849807 L12.0941866,16.5746549 L12.0296006,16.5694919 L11.8801302,16.5694919 L11.8005181,16.5746549 L11.7158973,16.5849807 L11.6360215,16.5950349 L11.5564094,16.6053607 L11.481806,16.6156866 L11.4122113,16.6311754 L11.3523705,16.6463925 L11.2975383,16.6618813 L11.2627409,16.6722072 L11.2229349,16.687696 L11.1681027,16.708076 L11.1135341,16.7336189 L11.0486845,16.7645966 L10.9838349,16.8004654 L10.9142402,16.8363342 L10.8493906,16.877366 L10.7797959,16.9287236 L10.71521,16.9800812 L10.6553691,17.0417647 L10.6005369,17.1031765 L10.5507134,17.1700229 L10.5159161,17.2417605 L10.4861274,17.323824 L10.4711013,17.4058876 L10.4660926,17.5806122 L10.4911361,17.7191963 L10.5409596,17.8216398 L10.6055456,17.8988121 L10.680149,17.949898 L10.7650334,17.9808756 L10.8446455,17.9960927 L10.9242577,18.0012556 L11.0737281,17.9960927 L11.2079087,17.9808756 L11.3376079,17.9602238 L11.4520174,17.9292462 L11.5516643,17.8936491 L11.646039,17.8474545 L11.7306598,17.8012598 L11.8055268,17.7447392 L11.8701128,17.6933816 L11.9299537,17.6316981 L11.9797771,17.5754492 L12.0195832,17.5137657 L12.0543805,17.4520822 L12.0841692,17.3906705 L12.1092127,17.3341499 L12.1239752,17.2776294 L12.1637813,17.1289912 L12.1988422,16.9594295 L12.2286309,16.7953024 L12.2534108,16.6618813 Z" id="Combined-Shape" fill="#FFFFFF"></path>
                        <polyline id="Stroke-27" stroke="#FFFFFF" stroke-width="0.216" points="13.453392 18.0012556 13.2543617 19.140634 11.9995484 19.140634 12.0343457 18.9303123 12.0593892 18.7403706 12.0791605 18.5966236 12.0991953 18.5197231 12.0296006 18.6017866 11.9497249 18.6838501 11.8553503 18.7607507 11.7506946 18.83276 11.6312764 18.9044977 11.506586 18.9661812 11.3771504 19.0275929 11.2427061 19.0789505 11.098508 19.1251452 10.9540463 19.1612858 10.8095846 19.1919917 10.6603778 19.2123717 10.5159161 19.2226976 10.3714544 19.2278605 10.232265 19.2123717 10.0978207 19.1919917 9.92357034 19.145797 9.76408251 19.0944394 9.62489312 19.0275929 9.50020264 18.9506923 9.39080189 18.8686288 9.29115494 18.7762395 9.21154284 18.6786871 9.14168453 18.5762436 9.08210725 18.4683654 9.03228378 18.3553243 8.99247773 18.2425549 8.96268909 18.1297855 8.94265425 18.0115815 8.92789174 17.8936491 8.91787433 17.780608 8.91787433 17.6678386 8.93263684 17.4675711 8.96268909 17.2776294 9.01224895 17.0980135 9.07709854 16.9235606 9.15671065 16.7594336 9.24634018 16.6105237 9.35099583 16.4667767 9.470414 16.3385185 9.59484087 16.2205862 9.73429387 16.112708 9.87875558 16.0151556 10.0279624 15.9330921 10.1874502 15.8613545 10.3516831 15.8048339 10.5209248 15.7586393 10.6951751 15.7279334 10.7051925 15.7279334 10.7299725 15.7227704 10.7650334 15.7176075 10.8198656 15.7124446 10.8794429 15.7021187 10.9490376 15.6969558 11.023641 15.6869016 11.1085254 15.6765757 11.1931462 15.6662499 11.2777671 15.655924 11.3673966 15.6507611 11.4470087 15.6407069 11.5266208 15.635544 11.6012242 15.6303811 11.6710825 15.6252181 11.8403241 15.6252181 11.9597423 15.6303811 12.0694067 15.635544 12.1788074 15.635544 12.2684369 15.6407069 12.3380316 15.6458699 12.3878551 15.6507611 12.4028812 15.6507611 12.4128986 15.6148922 12.4426873 15.5225029 12.4677308 15.4148964 12.4777482 15.3173441 12.4577134 15.204303 12.4128986 15.1018594 12.3530578 15.0094701 12.2734456 14.9322978 12.1788074 14.8657231 12.0741518 14.8195284 11.9547336 14.7888225 11.825298 14.7784966 11.6861086 14.7733337 11.5366382 14.7681707 11.3821591 14.7681707 11.2229349 14.7733337 11.0587019 14.7836596 10.8992141 14.7988766 10.7399899 14.8143654 10.5855108 14.8350172 10.436304 14.8553972 10.2918423 14.8809401 10.1624067 14.9067548 10.0429885 14.9322978 9.93332414 14.9632754 9.84395823 14.9939813 9.77409993 15.0298501 9.71926774 15.060556 10.0727771 13.8238969 10.1824415 13.7777022 10.2918423 13.7366705 10.4112604 13.7005299 10.5309422 13.674987 10.6503604 13.649444 10.7797959 13.6287923 10.9092315 13.6084123 11.0436758 13.5980864 11.1831288 13.5877605 11.3273269 13.5825976 11.4767973 13.5774347 11.9547336 13.5774347 12.1289839 13.5825976 12.3032343 13.5877605 12.4426873 13.5980864 12.5921577 13.6236294 12.7463732 13.6597699 12.9055974 13.7059646 13.0600766 13.7673764 13.2092834 13.8393857 13.3587538 13.9266122 13.4982068 14.0241645 13.6226336 14.1369339 13.732298 14.2600292 13.8316813 14.3986132 13.9065484 14.5526861 13.9561082 14.7168131 13.9861605 14.891266 13.9861605 15.0863706 13.9561082 15.2918011 13.453392 18.0012556"></polyline>
                        <polyline id="Fill-29" fill="#FFFFFF" points="2.97807284 19.140634 1.62387614 19.140634 2.75426264 12.4024591 5.10914666 12.4024591 5.33295686 16.400202 6.96105086 12.4024591 9.42085414 12.4024591 8.26542409 19.140634 6.91122738 19.140634 7.7677166 14.106228 7.71288442 14.106228 5.68672988 19.140634 4.15801921 19.140634 4.14800179 18.9303123 4.11320444 18.3708131 4.06838968 17.5754492 3.96900635 15.7431504 3.92419159 14.9374607 3.88939424 14.3524185 3.87937682 14.106228 3.80450981 14.106228 2.97807284 19.140634"></polyline>
                        <polyline id="Stroke-30" stroke="#FFFFFF" stroke-width="0.216" points="2.97807284 19.140634 1.62387614 19.140634 2.75426264 12.4024591 5.10914666 12.4024591 5.33295686 16.400202 6.96105086 12.4024591 9.42085414 12.4024591 8.26542409 19.140634 6.91122738 19.140634 7.7677166 14.106228 7.71288442 14.106228 5.68672988 19.140634 4.15801921 19.140634 4.14800179 18.9303123 4.11320444 18.3708131 4.06838968 17.5754492 3.96900635 15.7431504 3.92419159 14.9374607 3.88939424 14.3524185 3.87937682 14.106228 3.80450981 14.106228 2.97807284 19.140634"></polyline>
                        <path d="M38.1629345,18.0012556 L37.9586319,19.140634 L36.7090909,19.140634 L36.7188447,18.9303123 L36.7238534,18.7455336 L36.7238534,18.6069495 L36.7338708,18.545266 L36.6690212,18.6221666 L36.5944178,18.6993389 L36.5047883,18.7710765 L36.405405,18.8430859 L36.3007493,18.9096606 L36.1810675,18.9713441 L36.0569043,19.0327559 L35.9322138,19.0841135 L35.7977695,19.1251452 L35.6585801,19.166177 L35.5191271,19.1919917 L35.3796741,19.2123717 L35.2352124,19.2226976 L35.0957594,19.2278605 L34.9613151,19.2123717 L34.8268708,19.1919917 L34.6476118,19.145797 L34.4883875,19.0944394 L34.3489345,19.0275929 L34.2197626,18.9506923 L34.1100982,18.8686288 L34.01546,18.7762395 L33.9358479,18.6786871 L33.8659896,18.5762436 L33.8064123,18.4683654 L33.7615975,18.3553243 L33.7217915,18.2425549 L33.6967479,18.1297855 L33.6769767,18.0115815 L33.6619506,17.8936491 L33.6519332,17.780608 L33.6519332,17.6678386 L33.6619506,17.4675711 L33.6917392,17.2776294 L33.736554,17.0980135 L33.8014036,16.9235606 L33.876007,16.7594336 L33.9706452,16.6105237 L34.0753009,16.4667767 L34.1897103,16.3385185 L34.3191459,16.2205862 L34.4535902,16.112708 L34.5980519,16.0151556 L34.7522674,15.9330921 L34.9067465,15.8613545 L35.0709795,15.8048339 L35.2352124,15.7586393 L35.404454,15.7279334 L35.4144715,15.7279334 L35.4392514,15.7227704 L35.4743123,15.7176075 L35.5241358,15.7124446 L35.5887218,15.7021187 L35.6585801,15.6969558 L35.7331835,15.6869016 L35.8127956,15.6765757 L35.8974164,15.6662499 L35.987046,15.655924 L36.0716668,15.6507611 L36.1562876,15.6407069 L36.2358997,15.635544 L36.305758,15.6303811 L36.3753527,15.6252181 L36.5496031,15.6252181 L36.6690212,15.6303811 L36.7836943,15.635544 L36.893095,15.635544 L36.9877333,15.6407069 L37.0673454,15.6458699 L37.1124238,15.6507611 L37.132195,15.6507611 L37.1422124,15.6148922 L37.1569749,15.5225029 L37.172001,15.4148964 L37.1820185,15.3173441 L37.1619836,15.204303 L37.1221776,15.1018594 L37.0575916,15.0094701 L36.9827246,14.9322978 L36.893095,14.8657231 L36.788703,14.8195284 L36.6790386,14.7888225 L36.5596205,14.7784966 L36.4201675,14.7733337 L36.2709607,14.7681707 L36.1164815,14.7681707 L35.9572573,14.7733337 L35.7927608,14.7836596 L35.6335366,14.7988766 L35.4743123,14.8143654 L35.3198332,14.8350172 L35.1706264,14.8553972 L35.0261647,14.8809401 L34.8967291,14.9067548 L34.777311,14.9322978 L34.6676466,14.9632754 L34.5780171,14.9939813 L34.5084224,15.0298501 L34.4535902,15.060556 L34.8020909,13.8238969 L34.9117553,13.7777022 L35.0261647,13.7366705 L35.1405742,13.7005299 L35.2602559,13.674987 L35.3846828,13.649444 L35.5091097,13.6287923 L35.6385453,13.6084123 L35.7729896,13.5980864 L35.9124426,13.5877605 L36.0569043,13.5825976 L36.2011024,13.5774347 L36.6690212,13.5774347 L36.8382629,13.5825976 L37.0077681,13.5877605 L37.1472211,13.5980864 L37.2964279,13.6236294 L37.450907,13.6597699 L37.6101313,13.7059646 L37.7643468,13.7673764 L37.9188259,13.8393857 L38.0680327,13.9266122 L38.2074857,14.0241645 L38.3319126,14.1369339 L38.4465856,14.2600292 L38.5462326,14.3986132 L38.620836,14.5526861 L38.6754045,14.7168131 L38.7104655,14.891266 L38.7104655,15.0863706 L38.685422,15.2918011 L38.1629345,18.0012556 Z M36.9579446,16.6618813 L36.9479272,16.6311754 L36.928156,16.6053607 L36.893095,16.5901437 L36.8435352,16.5746549 L36.788703,16.5694919 L36.7238534,16.564329 L36.64925,16.564329 L36.5746466,16.5694919 L36.4950345,16.5798178 L36.4151588,16.5901437 L36.3355467,16.6001978 L36.2609433,16.6105237 L36.1860762,16.6260125 L36.1214903,16.6360666 L36.0569043,16.6515554 L36.0068172,16.6618813 L35.9720198,16.6670442 L35.9322138,16.6822613 L35.8826539,16.6977501 L35.8278217,16.7184019 L35.7629721,16.7491078 L35.7031313,16.7798136 L35.6335366,16.8156825 L35.5689506,16.8621489 L35.504101,16.9083436 L35.4392514,16.9645924 L35.3846828,17.021113 L35.3298506,17.0879594 L35.2850359,17.159697 L35.2502385,17.2365976 L35.2201863,17.3186611 L35.2054238,17.4058876 L35.2004151,17.5806122 L35.225195,17.7191963 L35.265001,17.8216398 L35.3248419,17.8988121 L35.3994453,17.949898 L35.4840661,17.9808756 L35.5689506,17.9960927 L35.6535714,18.0012556 L35.8027782,17.9960927 L35.9422312,17.9808756 L36.0716668,17.9550609 L36.1860762,17.9191921 L36.2957406,17.8781603 L36.3903788,17.8319656 L36.4800084,17.780608 L36.5596205,17.7191963 L36.6292152,17.6626757 L36.6890561,17.5958293 L36.7438882,17.5344175 L36.788703,17.4675711 L36.8235003,17.4058876 L36.8482803,17.3444758 L36.8683151,17.2827923 L36.8833412,17.2265435 L36.9031125,17.0827965 L36.928156,16.9338865 L36.9479272,16.7901395 L36.9579446,16.6618813 Z" id="Combined-Shape" fill="#FFFFFF"></path>
                        <polyline id="Fill-32" fill="#FFFFFF" points="37.9472757 19.1765029 37.9657082 19.145797 38.0921253 18.0064185 38.0550973 17.9960927 37.9288433 19.1354711 37.9472757 19.1047652 37.9472757 19.1765029 37.9626089 19.1713399 37.9657082 19.145797 37.9472757 19.1765029"></polyline>
                        <polyline id="Fill-33" fill="#FFFFFF" points="36.6790386 19.1269599 36.7090909 19.1491546 37.9586319 19.1491546 37.9586319 19.1047652 36.7090909 19.1047652 36.7388795 19.1269599 36.6790386 19.1269599 36.6740299 19.1491546 36.7090909 19.1491546 36.6790386 19.1269599"></polyline>
                        <polyline id="Fill-34" fill="#FFFFFF" points="36.7283005 18.5509418 36.7007334 18.524886 36.6883364 18.5769975 36.6852372 18.6650005 36.6852372 18.7823377 36.6790386 18.9158951 36.7160666 18.9158951 36.7222651 18.7823377 36.7283005 18.6650005 36.7252013 18.5769975 36.7252013 18.5509418 36.6976342 18.524886 36.7283005 18.5509418"></polyline>
                        <polyline id="Fill-35" fill="#FFFFFF" points="34.8221257 19.1587089 34.8221257 19.1587089 34.9613151 19.1774668 35.0957594 19.1915353 35.2352124 19.1868458 35.3796741 19.1774668 35.5241358 19.1587089 35.6635888 19.1355082 35.8027782 19.0979922 35.9422312 19.0609698 36.0666581 19.0143216 36.1960937 18.9582945 36.3155118 18.9025141 36.4201675 18.8371079 36.5248231 18.7719486 36.6144527 18.7065424 36.6940648 18.632004 36.7586507 18.5621552 36.7090909 18.524886 36.6442413 18.5947349 36.5746466 18.6598942 36.4850171 18.7253004 36.3903788 18.7904597 36.2859868 18.8464869 36.0468869 18.9582945 35.9221964 19.0049426 35.7927608 19.0422118 35.6535714 19.079481 35.5141184 19.1029285 35.3796741 19.1214397 35.2352124 19.1308187 35.0957594 19.1355082 34.9613151 19.1214397 34.8318795 19.1029285 34.8221257 19.1587089"></polyline>
                        <polyline id="Fill-36" fill="#FFFFFF" points="33.6171358 17.6678386 33.6171358 17.6678386 33.6221445 17.780608 33.6321619 17.8936491 33.6469245 18.0167444 33.6669593 18.1346767 33.6917392 18.2477179 33.7318089 18.3656502 33.7766237 18.4838542 33.8412096 18.5914607 33.9110679 18.6993389 33.9906801 18.7968912 34.0900634 18.8941718 34.2047365 18.976507 34.334172 19.0585705 34.4783701 19.1251452 34.6428667 19.1765029 34.8221257 19.2226976 34.8318795 19.1612858 34.6526205 19.1150911 34.498405 19.0637335 34.3639607 18.996887 34.2345251 18.9251494 34.1298694 18.8430859 34.0402399 18.7558594 33.9606278 18.6583071 33.8910331 18.5607548 33.8362009 18.4528766 33.7913862 18.3452702 33.7515801 18.237392 33.7268002 18.1246226 33.7067653 18.0064185 33.6917392 17.8936491 33.6819854 17.780608 33.6867305 17.6678386 33.6171358 17.6678386"></polyline>
                        <polyline id="Fill-37" fill="#FFFFFF" points="35.404454 15.6969558 35.404454 15.6969558 35.2302037 15.7279334 35.0609621 15.7741281 34.8967291 15.8303769 34.7375049 15.9023863 34.5830258 15.9844498 34.4335554 16.087165 34.2993747 16.1947715 34.1696755 16.3181385 34.0502573 16.4463967 33.9458653 16.5901437 33.8462183 16.7439448 33.7716149 16.9132348 33.7067653 17.0879594 33.6619506 17.2724664 33.6321619 17.4675711 33.6171358 17.6678386 33.6867305 17.6678386 33.6917392 17.4675711 33.7217915 17.2827923 33.7666062 17.1083394 33.8311922 16.9338865 33.9057956 16.7746507 33.9954251 16.6311754 34.1000808 16.4874284 34.2097452 16.3591702 34.3391807 16.2461291 34.4733614 16.1385226 34.6128144 16.0461333 34.7672935 15.963798 34.9165003 15.8920604 35.0809969 15.8355398 35.2402211 15.7893451 35.404454 15.7586393 35.404454 15.6969558"></polyline>
                        <polyline id="Fill-38" fill="#FFFFFF" points="36.4301849 15.5893493 36.3753527 15.5893493 36.305758 15.5957387 36.2358997 15.5989334 36.1562876 15.6019599 36.0716668 15.6083493 35.987046 15.611544 35.8974164 15.6179334 35.8127956 15.6243227 35.7331835 15.630544 35.6585801 15.6369334 35.5887218 15.6401281 35.5241358 15.6465174 35.4743123 15.6497121 35.4342427 15.6527387 35.4144715 15.6559334 35.404454 15.6559334 35.404454 15.6941015 35.4144715 15.6941015 35.4442601 15.6909068 35.4743123 15.6877121 35.5241358 15.6845174 35.5887218 15.6782962 35.6585801 15.6751015 35.7331835 15.6687121 35.8127956 15.6623227 35.8974164 15.6559334 35.987046 15.6497121 36.0716668 15.6465174 36.1562876 15.6401281 36.2358997 15.6369334 36.305758 15.6337387 36.4301849 15.6337387 36.4301849 15.5893493"></polyline>
                        <polyline id="Fill-39" fill="#FFFFFF" points="37.0387341 15.6243227 37.0659505 15.6083493 37.048045 15.6083493 37.0072203 15.6051546 36.9351208 15.6019599 36.849413 15.5957387 36.6464837 15.5957387 36.5383343 15.5893493 36.4301849 15.5893493 36.4301849 15.6337387 36.6464837 15.6337387 36.7503357 15.6401281 36.9351208 15.6401281 37.0072203 15.6433227 37.048045 15.6465174 37.0659505 15.6465174 37.0929281 15.630544 37.0659505 15.6465174 37.0883921 15.6497121 37.0929281 15.630544 37.0387341 15.6243227"></polyline>
                        <polyline id="Fill-40" fill="#FFFFFF" points="37.1329722 15.3173441 37.1300361 15.3173441 37.1269368 15.3777069 37.117639 15.4410963 37.1085044 15.4982644 37.1021427 15.5206273 37.1391707 15.5268485 37.1453692 15.5046538 37.154667 15.4474857 37.1638017 15.3777069 37.1730994 15.3173441 37.1329722 15.3173441"></polyline>
                        <polyline id="Fill-41" fill="#FFFFFF" points="36.5596205 14.7838225 36.5596205 14.7870172 36.6406327 14.7902119 36.7147383 14.8092119 36.7852973 14.8377959 36.8452164 14.8759641 36.8944957 14.9203535 36.9368685 14.9743269 36.9650547 15.0314951 36.9790545 15.0982473 37.0214273 15.0982473 37.0072408 15.0251057 36.9790545 14.9553269 36.9297752 14.8949641 36.8734027 14.8441853 36.8063903 14.7997959 36.7287381 14.7712119 36.6477259 14.7520437 36.5596205 14.7426278 36.5596205 14.7838225"></polyline>
                        <polyline id="Fill-42" fill="#FFFFFF" points="34.4238016 14.9323904 34.4733614 14.9513904 34.5234485 14.935417 34.5880345 14.9132223 34.6726553 14.8942223 34.7820561 14.8752223 34.9017378 14.8592488 35.0311734 14.8434435 35.1756351 14.8274701 35.3198332 14.8148594 35.4743123 14.8020807 35.6335366 14.7926648 35.7927608 14.7830807 35.9572573 14.7766913 36.4201675 14.7766913 36.5596205 14.779886 36.5596205 14.7417179 36.4201675 14.7386913 36.2709607 14.7323019 36.1164815 14.7323019 35.9572573 14.7386913 35.7927608 14.7449125 35.6335366 14.7544966 35.4743123 14.7640807 35.3198332 14.7766913 35.1656177 14.7894701 35.021156 14.8052754 34.8917204 14.8212488 34.7723023 14.8370541 34.6626379 14.8560541 34.5679997 14.8752223 34.4933963 14.897417 34.4335554 14.9196117 34.4833788 14.9386117 34.4238016 14.9323904"></polyline>
                        <polyline id="Fill-43" fill="#FFFFFF" points="34.6516786 13.793191 34.6394447 13.818734 34.4238016 15.0556648 34.4606664 15.0657189 34.6763096 13.8290599 34.6640757 13.8546028 34.6516786 13.793191 34.642544 13.7980822 34.6394447 13.818734 34.6516786 13.793191"></polyline>
                        <polyline id="Fill-44" fill="#FFFFFF" points="37.0077681 13.5511499 37.0077681 13.5511499 36.8382629 13.5447605 36.6690212 13.5415659 36.2011024 13.5415659 36.0569043 13.5479552 35.9124426 13.5511499 35.7729896 13.5575393 35.6385453 13.5637605 35.504101 13.5765393 35.3796741 13.5891499 35.2552472 13.6051234 35.1355655 13.6210968 35.0161473 13.6432915 34.9017378 13.6686809 34.7920735 13.697265 34.8121083 13.735265 34.9215091 13.7066809 35.0361821 13.6812915 35.1455829 13.6590968 35.265001 13.6432915 35.3896915 13.6273181 35.5141184 13.6147074 35.6385453 13.6019287 35.7729896 13.5955393 35.9124426 13.5891499 36.0569043 13.5861234 36.6690212 13.5861234 36.8382629 13.5891499 37.0077681 13.5891499 37.0077681 13.5511499"></polyline>
                        <polyline id="Fill-45" fill="#FFFFFF" points="38.7152106 15.2966923 38.7152106 15.2966923 38.7402541 15.0863706 38.7402541 14.891266 38.7054568 14.7116502 38.6506246 14.5423602 38.5710125 14.3833961 38.4713656 14.2396491 38.3519474 14.1113909 38.2275205 13.9983498 38.0830588 13.9007975 37.9335884 13.8084081 37.7743642 13.7366705 37.6198851 13.674987 37.4559157 13.6287923 37.3014366 13.5929235 37.1472211 13.5673805 37.0077681 13.5570547 37.0077681 13.6184664 37.1472211 13.6287923 37.2914192 13.654607 37.4458983 13.6904758 37.6001138 13.7366705 37.754593 13.7980822 37.9037998 13.8700916 38.0532702 13.9521551 38.1877145 14.0497074 38.3121413 14.1627486 38.4215421 14.2806809 38.521189 14.414102 38.5910473 14.563012 38.6456159 14.7219761 38.6804133 14.891266 38.6804133 15.0863706 38.6556333 15.2863665 38.7152106 15.2966923"></polyline>
                        <polyline id="Fill-46" fill="#FFFFFF" points="38.1699103 18.0064185 38.1699103 18.0064185 38.4932119 15.2966923 38.456347 15.2863665 38.1328823 17.9960927 38.1699103 18.0064185"></polyline>
                        <polyline id="Fill-48" fill="#FFFFFF" points="38.5362152 19.140634 39.9399717 19.140634 40.4432152 16.2205862 40.4629864 16.107545 40.5225636 15.8817345 40.5626333 15.7689651 40.6121932 15.655924 40.6720341 15.5483175 40.73662 15.4456023 40.8164958 15.34805 40.9061253 15.2608235 41.0055086 15.17876 41.1201817 15.1018594 41.2496173 15.040176 41.3938154 14.9888183 41.5533032 14.9477866 41.7275536 14.9170807 41.9218387 14.9067548 42.046002 14.9067548 42.2700758 13.5877605 42.1308864 13.5980864 41.9964421 13.6135752 41.8717516 13.6391182 41.7523335 13.674987 41.6429327 13.7160187 41.5382771 13.7673764 41.4386301 13.8238969 41.3442555 13.8855804 41.254626 13.9573181 41.1700052 14.0293274 41.0105173 14.1934545 40.9359139 14.2806809 40.8613105 14.3782332 40.7864435 14.4706226 40.7168488 14.5730661 40.8663192 13.6442811 39.4673078 13.6442811 38.5362152 19.140634"></polyline>
                        <polyline id="Stroke-49" stroke="#FFFFFF" stroke-width="0.216" points="38.5362152 19.140634 39.9399717 19.140634 40.4432152 16.2205862 40.4629864 16.107545 40.5225636 15.8817345 40.5626333 15.7689651 40.6121932 15.655924 40.6720341 15.5483175 40.73662 15.4456023 40.8164958 15.34805 40.9061253 15.2608235 41.0055086 15.17876 41.1201817 15.1018594 41.2496173 15.040176 41.3938154 14.9888183 41.5533032 14.9477866 41.7275536 14.9170807 41.9218387 14.9067548 42.046002 14.9067548 42.2700758 13.5877605 42.1308864 13.5980864 41.9964421 13.6135752 41.8717516 13.6391182 41.7523335 13.674987 41.6429327 13.7160187 41.5382771 13.7673764 41.4386301 13.8238969 41.3442555 13.8855804 41.254626 13.9573181 41.1700052 14.0293274 41.0105173 14.1934545 40.9359139 14.2806809 40.8613105 14.3782332 40.7864435 14.4706226 40.7168488 14.5730661 40.8663192 13.6442811 39.4673078 13.6442811 38.5362152 19.140634"></polyline>
                        <polyline id="Fill-50" fill="#FFFFFF" points="25.3525026 19.140634 26.7813027 19.140634 27.259239 16.2205862 27.2792738 16.107545 27.3040537 15.9999386 27.3290973 15.8920604 27.3638946 15.7893451 27.4037007 15.6869016 27.4535241 15.5893493 27.513365 15.4969599 27.5829597 15.4097335 27.6625718 15.3325612 27.7522014 15.2556606 27.8618657 15.1942488 27.9812839 15.1377283 28.1207369 15.0915336 28.2749524 15.0505018 28.444194 15.0246871 28.6384792 15.0094701 28.6535053 15.0094701 28.6732766 15.014633 28.6983201 15.0195242 28.7231 15.0195242 28.74788 15.0246871 28.7679148 15.0298501 28.7826773 15.035013 28.787686 15.035013 28.7926947 15.014633 28.8077208 14.9529495 28.8274921 14.8605601 28.8525356 14.747519 28.887333 14.6140979 28.9221303 14.4706226 28.9672087 14.3268756 29.0117598 14.1831286 29.0515659 14.0855763 29.1512128 13.8907434 29.2010363 13.8032452 29.2458511 13.7263446 29.2806484 13.6649328 29.305692 13.6287923 29.3154458 13.6135752 29.3107007 13.6135752 29.2906658 13.6084123 29.2656223 13.6032493 29.2308249 13.5980864 29.1960276 13.5980864 29.1562215 13.5929235 29.1214242 13.5877605 29.0866268 13.5877605 28.9321477 13.5980864 28.7926947 13.6135752 28.6632591 13.6391182 28.543841 13.6700958 28.4294315 13.7108558 28.3247759 13.7622134 28.2301376 13.8135711 28.1405081 13.8752546 28.0558873 13.9418293 27.9762752 14.0190016 27.9016718 14.0959021 27.8268048 14.1831286 27.7522014 14.270355 27.6826067 14.3679073 27.5331362 14.5730661 27.7123953 13.6442811 26.2835952 13.6442811 25.3525026 19.140634"></polyline>
                        <polyline id="Stroke-51" stroke="#FFFFFF" stroke-width="0.216" points="25.3525026 19.140634 26.7813027 19.140634 27.259239 16.2205862 27.2792738 16.107545 27.3040537 15.9999386 27.3290973 15.8920604 27.3638946 15.7893451 27.4037007 15.6869016 27.4535241 15.5893493 27.513365 15.4969599 27.5829597 15.4097335 27.6625718 15.3325612 27.7522014 15.2556606 27.8618657 15.1942488 27.9812839 15.1377283 28.1207369 15.0915336 28.2749524 15.0505018 28.444194 15.0246871 28.6384792 15.0094701 28.6535053 15.0094701 28.6732766 15.014633 28.6983201 15.0195242 28.7231 15.0195242 28.74788 15.0246871 28.7679148 15.0298501 28.7826773 15.035013 28.787686 15.035013 28.7926947 15.014633 28.8077208 14.9529495 28.8274921 14.8605601 28.8525356 14.747519 28.887333 14.6140979 28.9221303 14.4706226 28.9672087 14.3268756 29.0117598 14.1831286 29.0515659 14.0855763 29.1512128 13.8907434 29.2010363 13.8032452 29.2458511 13.7263446 29.2806484 13.6649328 29.305692 13.6287923 29.3154458 13.6135752 29.3107007 13.6135752 29.2906658 13.6084123 29.2656223 13.6032493 29.2308249 13.5980864 29.1960276 13.5980864 29.1562215 13.5929235 29.1214242 13.5877605 29.0866268 13.5877605 28.9321477 13.5980864 28.7926947 13.6135752 28.6632591 13.6391182 28.543841 13.6700958 28.4294315 13.7108558 28.3247759 13.7622134 28.2301376 13.8135711 28.1405081 13.8752546 28.0558873 13.9418293 27.9762752 14.0190016 27.9016718 14.0959021 27.8268048 14.1831286 27.7522014 14.270355 27.6826067 14.3679073 27.5331362 14.5730661 27.7123953 13.6442811 26.2835952 13.6442811 25.3525026 19.140634"></polyline>
                    </g>
                </g>
            </g>
        </g>
    </g>
</svg>