<?xml version="1.0" encoding="UTF-8"?>
<svg width="17px" height="13px" viewBox="0 0 17 13" version="1.1" xmlns="http://www.w3.org/2000/svg" xmlns:xlink="http://www.w3.org/1999/xlink">
    <!-- Generator: Sketch 41.1 (35376) - http://www.bohemiancoding.com/sketch -->
    <title>read</title>
    <desc>Created with Sketch.</desc>
    <defs></defs>
    <g id="Final" stroke="none" stroke-width="1" fill="none" fill-rule="evenodd">
        <g id="TaskActivity" transform="translate(-642.000000, -440.000000)" fill="#2E81EC">
            <g id="Group-4-Copy" transform="translate(462.000000, 365.000000)">
                <g id="Group-16" transform="translate(65.000000, 66.000000)">
                    <g id="Group-17" transform="translate(115.000000, 4.000000)">
                        <polygon id="read" points="5.64516129 15.0111828 1.68989247 11.0653763 0.355698925 12.3995699 5.64516129 17.6890323 17 6.33419355 15.6563441 5"></polygon>
                    </g>
                </g>
            </g>
        </g>
    </g>
</svg>