<?xml version="1.0" encoding="UTF-8"?>
<svg width="22px" height="16px" viewBox="0 0 22 16" version="1.1" xmlns="http://www.w3.org/2000/svg" xmlns:xlink="http://www.w3.org/1999/xlink">
    <!-- Generator: sketchtool 41 (35326) - http://www.bohemiancoding.com/sketch -->
    <title>8E1FB8C1-BA0F-45D7-BE5D-46230EED3D04</title>
    <desc>Created with sketchtool.</desc>
    <defs></defs>
    <g id="Final" stroke="none" stroke-width="1" fill="none" fill-rule="evenodd">
        <g id="AddTask0" transform="translate(-150.000000, -187.000000)" fill="#13385B">
            <g id="Group-11" transform="translate(130.000000, 78.000000)">
                <g id="Group-8" transform="translate(0.000000, 90.000000)">
                    <g id="Group-6-Copy-4" transform="translate(20.000000, 19.000000)">
                        <rect id="Rectangle-240" x="0" y="0" width="22" height="2" rx="1"></rect>
                        <rect id="Rectangle-240-Copy" x="0" y="7" width="22" height="2" rx="1"></rect>
                        <rect id="Rectangle-240-Copy-2" x="0" y="14" width="22" height="2" rx="1"></rect>
                    </g>
                </g>
            </g>
        </g>
    </g>
</svg>