<?xml version="1.0" encoding="UTF-8"?>
<svg width="23px" height="18px" viewBox="0 0 23 18" version="1.1" xmlns="http://www.w3.org/2000/svg" xmlns:xlink="http://www.w3.org/1999/xlink">
    <!-- Generator: sketchtool 41 (35326) - http://www.bohemiancoding.com/sketch -->
    <title>C541E3A4-F7B8-4CD2-BA35-E44B3D8C32A3</title>
    <desc>Created with sketchtool.</desc>
    <defs></defs>
    <g id="Final" stroke="none" stroke-width="1" fill="none" fill-rule="evenodd">
        <g id="Blog-New-Post" transform="translate(-1026.000000, -33.000000)" fill="#FFFFFF">
            <g id="Group-3-Copy">
                <g id="Group-47" transform="translate(150.000000, 21.000000)">
                    <g id="Group-49" transform="translate(802.000000, 11.000000)">
                        <path d="M81.2334028,19 C78.5686199,19 76.0882476,18.2477653 74,16.9584747 C74.3691576,17.0004411 74.7447932,17.0219104 75.1256447,17.0219104 C77.3363839,17.0219104 79.3710414,16.2954388 80.9859797,15.0767133 C78.92112,15.040013 77.178474,13.7262555 76.578046,11.9208923 C76.8661034,11.9739578 77.1617323,12.0023945 77.4657742,12.0023945 C77.8961776,12.0023945 78.3130363,11.9468984 78.7090311,11.8430358 C76.5502835,11.4256407 74.9238195,9.58900521 74.9238195,7.38731107 C74.9238195,7.36819127 74.9238195,7.34915248 74.924156,7.33019471 C75.5604228,7.67054344 76.2879696,7.87494711 77.0615348,7.89852281 C75.7953949,7.08366265 74.9622664,5.69277786 74.9622664,4.11628514 C74.9622664,3.28352042 75.1949669,2.50293008 75.6011412,1.83179253 C77.9284831,4.58099362 81.4054464,6.39008363 85.3271992,6.57958034 C85.246772,6.24700915 85.2049599,5.90017914 85.2049599,5.54403226 C85.2049599,3.03455788 87.3177731,1 89.9238341,1 C91.2810015,1 92.5073485,1.55188182 93.3681554,2.43503857 C94.4429862,2.23120201 95.4528695,1.85301875 96.3645744,1.33232813 C96.0122426,2.39339629 95.2640843,3.2839255 94.2897875,3.84633942 C95.244314,3.73648156 96.1537474,3.49221795 97,3.13080503 C96.3673507,4.04207437 95.5672848,4.84243264 94.6454003,5.48310814 C94.6544863,5.67795191 94.6590292,5.87392991 94.6590292,6.07096112 C94.6590292,12.0757951 89.9128132,19 81.2334028,19" id="Fill-1-Copy-3"></path>
                    </g>
                </g>
            </g>
        </g>
    </g>
</svg>
